<?xml version="1.0" standalone="no"?>
<!DOCTYPE svg PUBLIC "-//W3C//DTD SVG 1.1//EN" "http://www.w3.org/Graphics/SVG/1.1/DTD/svg11.dtd" >
<svg xmlns="http://www.w3.org/2000/svg">
<metadata>
Created by FontForge 20100429 at Wed Feb 20 03:19:09 2013
 By root
Copyright (C) 2012 by original authors @ fontello.com
</metadata>
<defs>
<font id="bttlfont" horiz-adv-x="887" >
  <font-face 
    font-family="bttlfont"
    font-weight="500"
    font-stretch="normal"
    units-per-em="1000"
    panose-1="2 0 6 3 0 0 0 0 0 0"
    ascent="850"
    descent="-150"
    x-height="850"
    cap-height="850"
    bbox="13.8621 -190 1245 890"
    underline-thickness="50"
    underline-position="-100"
    unicode-range="U+0021-1F525"
  />
<missing-glyph horiz-adv-x="364" 
d="M33 0v666h265v-666h-265zM66 33h199v600h-199v-600z" />
    <glyph glyph-name=".notdef" horiz-adv-x="364" 
d="M33 0v666h265v-666h-265zM66 33h199v600h-199v-600z" />
    <glyph glyph-name=".null" horiz-adv-x="0" 
 />
    <glyph glyph-name="nonmarkingreturn" horiz-adv-x="333" 
 />
    <glyph glyph-name="exclam" unicode="!" horiz-adv-x="1022" 
d="M402 612q-76 -9 -118 -52.5t-42 -121.5q0 -30 4 -50q20 -126 73 -358q34 -157 38 -174q-159 49 -251 185q-91 134 -91 307q0 215 141 356q140 140 355 140t355 -140q141 -141 141 -356q0 -182 -103 -312q-105 -132 -280 -172q-5 10 -33.5 53t-34.5 55q66 -26 86 -26
q16 0 16 50q0 94 -17 94q-24 0 -97 -56q0 14 -15 12h-5q-26 70 -26 124q0 15 3 30q94 -46 148 -46q30 0 93 18t63 40q0 12 -17 12q-15 0 -75 -7t-75 -7q-26 0 -60 14q-32 13 -32 38q0 5 1.5 7.5t5 3t6.5 0.5t8 -0.5t8 -0.5q5 0 26 -3t25 -3q28 0 127 37q96 36 96 57
q0 11 -17.5 16.5t-35.5 5.5q-12 0 -42 -8q-13 -3 -53 -16t-52 -16q4 17 4 32q0 48 -25 110t-58 92q-28 25 -72 34q-28 35 -88 65q-58 29 -105 29q-3 0 -51 -8l-22 -30l6 -2q4 0 21.5 2t21.5 2q33 0 78 -14q-37 -18 -62 -21q-39 -5 -39 -21q56 6 84 6q42 0 60 -6zM355 500
q-17 0 -36 -12.5t-18 -27.5q-3 6 -3 12q0 16 15 26t33 10q20 0 29 -12q-11 4 -20 4zM331 398q0 13 10.5 23.5t23.5 10.5t23.5 -10.5t10.5 -23.5t-10.5 -23.5t-23.5 -10.5t-23.5 10.5t-10.5 23.5zM380 400q9 0 9 8q0 10 -9 10t-9 -10q0 -8 9 -8zM539 496q4 24 35 24
q25 0 35 -22q-19 10 -33 10q-30 0 -37 -12zM562 418q0 11 9 19.5t20 8.5q12 0 20.5 -8t8.5 -20q0 -11 -9 -20.5t-20 -9.5q-10 0 -19.5 9.5t-9.5 20.5zM597 428q0 -8 7 -8q8 0 8 8q0 6 -8 6q-7 0 -7 -6z" />
    <glyph glyph-name="numbersign" unicode="#" horiz-adv-x="1039" 
d="M15 351h501v-501h-501v501zM524 349v501h500v-501h-500z" />
    <glyph glyph-name="dollar" unicode="$" horiz-adv-x="1004" 
d="M209 850h438q107 0 181 -74q81 -79 52 -229q-28 -135 -128 -214q-99 -78 -234 -78h-183l-63 -296h-257zM115 -150l11 49h216l63 295h183q135 0 234 78q100 79 128 214q21 96 -12 170q71 -85 43 -219q-30 -136 -129 -214t-233 -78h-184l-63 -295h-257zM639 605
q-8 28 -31 46t-56 18h-125l-55 -244h83l42 183h125q2 0 17 -3zM497 426q50 2 91 38.5t51 82.5q0 1 1 6t1 6h-114z" />
    <glyph glyph-name="percent" unicode="%" horiz-adv-x="989" 
d="M15 477q0 181 85.5 279t258.5 98h548l-109 -110l-137 -138l-111 -108q-40 -37 -41 -37q-15 0 -15 16v156h-48q-86 0 -132.5 -17.5t-63.5 -71.5q-12 -38 -12 -96v-262l-223 -223v514zM82 -154l109 110l135 138l112 108q40 37 42 37q15 0 15 -16v-156h48q117 0 161 35
q46 37 46 150v262l224 223v-514q0 -181 -85.5 -279t-258.5 -98h-548z" />
    <glyph glyph-name="ampersand" unicode="&#x26;" horiz-adv-x="950" 
d="M78 138q-26 0 -44.5 19t-18.5 44v269q0 26 18.5 44.5t44.5 18.5t44.5 -18.5t18.5 -44.5v-269q0 -25 -18.5 -44t-44.5 -19zM251 38q-25 0 -44 19t-19 44v418h574v-418q0 -25 -19 -44t-44 -19h-448zM188 566q0 116 85 189q86 74 202 74t202 -74q85 -73 85 -189h-574z
M289 882q0 -2 48 -91l15 8l-49 89q-6 2 -7 2q-7 0 -7 -8zM304 75q0 27 19 45t47 18q25 0 44 -19t19 -44v-202q0 -27 -19 -45t-47 -18q-25 0 -44 19t-19 44v202zM349 734q-16 0 -28 -11.5t-12 -27.5t11.5 -28t27.5 -12q17 0 28.5 11.5t11.5 28.5q0 16 -11.5 27.5t-27.5 11.5z
M517 75q0 27 19.5 45t46.5 18q25 0 44 -19t19 -44v-202q0 -27 -19 -45t-47 -18q-26 0 -44.5 19t-18.5 44v202zM602 734q-16 0 -28 -11.5t-12 -27.5t11.5 -28t27.5 -12q17 0 28.5 11.5t11.5 28.5q0 16 -11.5 27.5t-27.5 11.5zM598 799l15 -9l48 89v2q0 9 -7 9q-6 0 -18 -18
q-11 -17 -24 -44zM809 201v268q0 26 19 45t44 19t44 -19t19 -45v-268q0 -25 -18.5 -44t-44.5 -19t-45 18.5t-18 44.5z" />
    <glyph glyph-name="plus" unicode="+" horiz-adv-x="816" 
d="M15 332v107q0 23 15.5 38.5t38.5 15.5h232v232q0 23 15.5 38.5t37.5 15.5h107q23 0 38.5 -15.5t15.5 -38.5v-232h232q23 0 38.5 -15.5t15.5 -38.5v-107q0 -22 -15.5 -37.5t-38.5 -15.5h-232v-233q0 -22 -15.5 -37.5t-38.5 -15.5h-107q-22 0 -37.5 15.5t-15.5 37.5v233
h-232q-23 0 -38.5 15.5t-15.5 37.5z" />
    <glyph glyph-name="comma" unicode="," horiz-adv-x="1136" 
d="M15 677v21l2 2h249l2 -2v-20q0 -8 -10 -8l-26 -1q-33 -1 -33 -20q0 -14 7 -28q52 -128 222 -484l6 -1l111 221q-3 6 -11 23.5t-11 25.5l-96 190q-24 48 -34 60q-8 10 -33 14q-14 2 -14 7v21l3 2h197l5 -1v-21q0 -8 -10 -8l-15 -2q-7 -1 -10 -1.5t-7.5 -2.5t-5.5 -5t-1 -8
q0 -6 4 -18l14 -30l73 -150l81 162q9 17 10.5 27t-6 16t-16.5 8t-29 4q-10 0 -10 9v19l3 2q57 2 186 0l2 -2v-20q0 -8 -9 -8q-22 -1 -30 -4.5t-17 -15.5q-22 -34 -30 -48l-105 -196l-3 -7l128 -262l8 -3l202 481q11 27 -2 40t-40 14l-19 1q-3 0 -6.5 3t-3.5 6v20l3 2h229
l2 -2v-20q0 -7 -9 -9q-44 -2 -64.5 -17t-35.5 -51l-250 -567q-21 -48 -46 -30q-13 10 -23 31q-40 80 -122 263q-100 -205 -131 -264q-41 -71 -71 -1q-13 30 -128 280.5t-132 290.5q-16 42 -28 52q-10 10 -52 13q-14 2 -14 7z" />
    <glyph glyph-name="hyphen" unicode="-" horiz-adv-x="816" 
d="M15 332v107q0 23 15.5 38.5t38.5 15.5h678q23 0 38.5 -15.5t15.5 -38.5v-107q0 -22 -15.5 -37.5t-38.5 -15.5h-678q-23 0 -38.5 15.5t-15.5 37.5z" />
    <glyph glyph-name="two" unicode="2" horiz-adv-x="1031" 
d="M31 471q33 131 125.5 227t220.5 133q141 41 270.5 2t216.5 -123q88 -86 130.5 -211t6.5 -270q-33 -131 -125.5 -227t-220.5 -133q-141 -41 -271 -2t-217 123q-88 86 -130 211t-6 270zM572 563l-44 11l22 88l-55 14l-22 -90q-13 1 -35 8l-76 19l-14 -59l39 -9
q27 -7 26 -32l-26 -103h1l2 -1q-2 0 -3 1l-36 -144q-4 -18 -25 -13l-40 10l-27 -63l72 -18q3 0 19 -5t20 -5l-23 -91l55 -14l22 90l44 -11l-22 -90l55 -13l22 91q107 -18 151 13q29 20 43 61q31 90 -51 133q60 13 70 80q13 85 -110 126l23 91l-55 13zM472 344q20 0 47 -11
q41 -12 57 -22q14 -9 21 -15t13 -20t1 -31q-7 -27 -43 -38q-22 -7 -92 7q-20 3 -34 9zM486 399l27 110q9 -3 33.5 -8.5t40.5 -12t25 -16.5q18 -18 17 -30q-3 -46 -31 -53q-26 -6 -49 -3q-43 8 -47 9q-13 4 -16 4z" />
    <glyph glyph-name="greater" unicode="&#x3e;" horiz-adv-x="1235" 
d="M1220 350q0 -49 -27.5 -87.5t-68.5 -58.5q0 -195 -260 -303q-46 -21 -68 -27t-79 -15q-59 -9 -93 -9q-118 0 -231 35q-3 3 -72 38q-97 52 -153 116q-57 65 -57 156h-5q-33 17 -59 50l-9 12q-15 27 -19 43.5t-4 52.5q0 63 49 106q50 44 113 44q61 0 105 -36h5
q133 82 335 82l5 4l70 267l242 -36q0 -1 2 -1q1 0 0 1q2 1 14 18l12 16q35 32 82 32q49 0 82.5 -32.5t33.5 -81.5t-34 -84t-82 -35q-55 0 -86 38t-31 97q-2 -1 -97.5 13t-109.5 17h-3l-16 -54l-23 -84q-19 -69 -25 -88v-3l5 -4q77 0 153 -22.5t128 -57.5q1 1 2 1t2 1l16 11
l16 12q3 2 13.5 8t18 7.5t19 3.5t25.5 2q68 0 116 -48.5t48 -116.5zM173 472q-48 0 -86 -41t-38 -90q0 -65 57 -112q5 59 48 116q46 60 101 101q-38 26 -82 26zM151 195q0 -107 111 -189q99 -73 207 -94q78 -14 146 -14q133 0 241 43t177 119h-3q28 35 43 68q13 29 13 73
q0 109 -96 187q-150 122 -373 122q-157 0 -301 -72q-71 -35 -118 -97.5t-47 -145.5zM337 268q0 37 22.5 59.5t59.5 22.5t62 -23t25 -59t-25.5 -60t-61.5 -24t-59 24t-23 60zM608 12q62 0 113 25.5t81 66.5h41q-25 -62 -93 -96q-67 -34 -142 -34q-74 0 -142 34q-69 34 -93 96
h44q25 -44 79 -68t112 -24zM709 268q0 38 23 60t61 22q34 0 58 -24t24 -58t-24 -59t-58 -25q-37 0 -60.5 23.5t-23.5 60.5zM964 736q0 -34 25 -59.5t60 -25.5q36 0 59 24.5t23 60.5q0 34 -24 58t-58 24q-33 0 -59 -24.5t-26 -57.5zM978 455q53 -35 94 -91t57 -121
q59 44 59 96q0 58 -36 100t-92 42q-44 0 -82 -26z" />
    <glyph glyph-name="A" unicode="A" horiz-adv-x="890" 
d="M733 328q-2 -77 38 -132.5t104 -79.5q-69 -148 -150 -225q-41 -39 -91 -41q-31 0 -76 22q-46 20 -91 20h-4q-47 0 -95 -21t-78 -21q-84 2 -172 137q-58 89 -83 184q-20 78 -20 144q0 24 1 36q13 156 140 231q59 34 114 34q39 0 102 -22q60 -21 90 -21q29 0 86 21
q60 22 105 22q112 0 192 -102q-45 -25 -76.5 -67t-35.5 -95v-24zM431 609q-3 15 -3 30q0 64 53 129q25 31 67 54.5t85 27.5q2 -20 2 -30q0 -68 -50 -132q-26 -33 -66.5 -56.5t-83.5 -22.5h-4z" />
    <glyph glyph-name="C" unicode="C" horiz-adv-x="1030" 
d="M15 350q0 206 148 354q144 146 351 146q208 0 357 -146q71 -71 107 -162q37 -87 37 -192q0 -210 -143 -351q-73 -71 -166 -111q-96 -38 -192 -38q-204 0 -352 148q-147 147 -147 352zM105 350q0 -169 123 -288q61 -61 133 -89q71 -31 155 -31q164 0 292 121
q117 114 117 287q0 86 -31 157q-30 77 -88 132q-120 121 -290 121q-171 0 -288 -120q-123 -123 -123 -290zM230 350q0 68 40.5 111.5t106.5 43.5q93 0 133 -72l-67 -35q-10 23 -27 31q-15 9 -29 9q-67 0 -67 -88q0 -38 17 -63t50 -25q44 0 62 42l62 -31q-46 -78 -132 -78
q-69 0 -109 42t-40 113zM519 350q0 68 40.5 111.5t106.5 43.5q93 0 132 -72l-66 -35q-19 40 -56 40q-67 0 -67 -88q0 -40 16.5 -64t50.5 -24q43 0 61 42l63 -31q-46 -78 -131 -78q-70 0 -110 42t-40 113z" />
    <glyph glyph-name="T" unicode="T" horiz-adv-x="1260" 
d="M15 -37q30 -3 60 -3q176 0 314 108q-84 1 -148.5 51.5t-87.5 123.5q17 -4 47 -4q36 0 67 9q-85 16 -144 85t-59 162v3q52 -29 115 -31q-49 32 -81 87t-32 123t35 127q89 -112 223 -183.5t297 -80.5q-7 31 -7 58q0 104 74 178t179 74q109 0 184 -80q85 18 160 62
q-28 -91 -110 -140q75 9 144 40q-48 -75 -125 -131v-33q0 -212 -120 -396q-131 -202 -346 -280q-117 -42 -252 -42q-208 0 -387 113z" />
    <glyph glyph-name="underscore" unicode="_" horiz-adv-x="1116" 
d="M15 175v350h140v-207h805v207h141v-350h-1086z" />
    <glyph glyph-name="a" unicode="a" horiz-adv-x="1130" 
d="M33 75q250 -145 544 -145q213 0 401 79q29 13 38 0q8 -11 -6 -22q-85 -61 -202 -99t-243 -38q-313 0 -544 208q-6 4 -6 10q0 2 2 6q5 9 16 1zM494 177q-80 0 -128 49.5t-48 132.5q0 137 127 192q64 28 221 41v17q0 63 -14 86q-21 30 -66 30h-8q-34 -3 -57.5 -22
t-30.5 -49q-5 -20 -20 -23l-115 14q-17 5 -17 18q0 4 1 7q16 88 83 132q66 43 156 48h25q154 0 210 -101q1 -1 15 -49q4 -16 4 -54v-242q0 -10 1 -19.5t2 -16t5 -15t5.5 -12.5t7 -12.5t7.5 -10.5l8 -12q8 -9 9 -11q6 -9 6 -16q0 -8 -8 -14l-90 -78q-13 -9 -29 -2
q-34 30 -54 59q-12 17 -14 19q-55 -61 -110 -76q-33 -10 -84 -10zM490 379q0 -38 19 -62t53 -24q2 0 8 1t8 1q37 10 61.5 47.5t26.5 84.5v46v25q-56 0 -88 -8q-88 -25 -88 -111zM910 57q1 3 6 8q49 32 122 34q19 2 44 -4.5t29 -11.5t4 -18v-7q0 -35 -19 -82q-20 -50 -53 -77
q-4 -4 -9 -4q-10 0 -7 12q37 86 37 121q0 12 -4 16q-10 12 -56 12q-25 0 -86 -8q-4 0 -7 1.5t-2 4.5q0 2 1 3z" />
    <glyph glyph-name="f" unicode="f" horiz-adv-x="568" 
d="M15 313v191h154v96q0 104 67 177t164 73h153v-191h-153q-17 0 -28 -18t-11 -39v-98h192v-191h-192v-463h-192v463h-154z" />
    <glyph glyph-name="n" unicode="n" horiz-adv-x="1030" 
d="M15 527l316 323v-123l301 -277l187 46l-195 -208l391 -438l-444 392l-188 -192l30 169l-255 316z" />
    <glyph glyph-name="t" unicode="t" horiz-adv-x="646" 
d="M15 440v142q59 19 101 55q86 69 102 213h143v-253h237v-157h-237v-256q0 -86 9 -112q10 -27 41.5 -43t68.5 -16q78 0 151 49v-157q-60 -29 -109.5 -42t-118.5 -13q-66 0 -122 17q-106 36 -141 118q-14 36 -14 105v350h-111z" />
    <glyph glyph-name="w" unicode="w" horiz-adv-x="1030" 
d="M15 350q0 144 70 256.5t179 176.5q115 67 251 67q144 0 256.5 -70t176.5 -179q67 -115 67 -251q0 -144 -70 -256.5t-179 -176.5q-115 -67 -251 -67q-144 0 -256.5 70t-176.5 179q-67 115 -67 251zM54 350q0 -141 74.5 -251t185.5 -164l-220 603q-40 -87 -40 -188z
M743 609q0 33 22.5 57.5t55.5 24.5q1 0 3 -0.5t3 -0.5q-130 121 -312 121q-125 0 -225.5 -58.5t-160.5 -149.5h30q48 0 123 6q11 1 17 -8t2 -19t-16 -11l-53 -5l168 -499l101 302l-72 197q-32 4 -48 5q-11 1 -15.5 11t1 19t17.5 8l121 -6q49 0 123 6q11 1 17 -8t2 -19
t-16 -11l-52 -5l166 -496l46 154q36 117 36 149q0 63 -39 128q-22 35 -35 63q-10 21 -10 45zM385 -93q61 -18 130 -18q78 0 153 26q-28 72 -76.5 207.5t-68.5 187.5zM747 -49q100 58 164.5 162.5t64.5 236.5q0 120 -56 221q3 -21 3 -47q0 -62 -35 -165z" />
    <glyph glyph-name="sterling" unicode="&#xa3;" horiz-adv-x="698" 
d="M16 512q-10 152 126 252q139 103 320 81q96 -12 181 -59q-1 -40 0 -76q6 -119 -10 -153q-15 2 -52 14q-67 20 -127 24q-70 6 -99 -38q7 -43 38 -66q29 -20 82 -37q48 -13 69 -26q114 -71 139 -219v-85q0 -84 -46 -144.5t-117 -90.5q-106 -44 -245 -38q-140 6 -239 59
q3 43 0 80t-1.5 79.5t11.5 69.5q16 -3 66 -16t56 -14q165 -36 177 40q2 19 -5.5 34.5t-26 27t-29.5 17t-32 13.5q-50 21 -96 49q-59 36 -80 68q-54 76 -60 154z" />
    <glyph glyph-name="aacute" unicode="&#xe1;" horiz-adv-x="1156" 
d="M91 679q51 82 96 114q37 27 110.5 45t135.5 6q51 -9 83 -32q39 -27 63 -57q37 -48 51 -73q44 -81 70 -145q2 -7 13 -31q6 41 57 188q48 141 67 145q91 21 145 0l16 -16q-1 -31 -14 -71q-1 -3 -25 -67l-160 -439q-7 -33 19 -90q26 -56 67 -93q29 -26 53.5 -27t38.5 26
q11 22 28 29.5t57 7.5q54 0 67 -19q28 -52 -1 -100.5t-78 -84.5q-78 -57 -148 -42q-80 16 -129 81q-30 40 -80 127q-3 -1 -6 -4q-24 -58 -82 -106.5t-126 -74.5q-79 -29 -157.5 -19t-137.5 53q-84 60 -131 204q-45 137 -36 300q9 158 74 265zM169 426q-13 -108 9 -211
q23 -104 73 -141q86 -64 157 -32l34 16q9 4 22 14t28 26q5 5 13 14t11 12t8.5 9t7.5 9l8 10l10 14l10 17l22 33l16 30l22 36q-37 157 -64 223q-74 173 -202 155q-56 -8 -80.5 -21t-50.5 -50q-41 -56 -54 -163z" />
    <glyph glyph-name="eacute" unicode="&#xe9;" horiz-adv-x="896" 
d="M142 808q128 42 306 42q180 0 306 -42q127 -42 127 -102q0 -12 -72 -440q-9 -45 -111 -89q-101 -43 -250 -43t-250 43q-103 44 -110 89q-73 411 -73 440q0 60 127 102zM122 129q0 17 15 17q5 0 12 -5q45 -37 122 -58q77 -22 126 -23l51 -3q117 0 227 43q41 16 73 41l11 5
q16 0 16 -17q0 -3 -1 -4l-19 -101q-10 -53 -11 -60q-10 -49 -96 -82q-83 -32 -200 -32t-200 32q-85 33 -95 82q-15 70 -31 161v4zM252 680q81 -18 196 -18q113 0 196 17q82 17 82 41t-82 42q-81 18 -196 18q-113 0 -196 -17q-81 -17 -81 -42q0 -23 81 -41zM310 368
q0 -56 41 -97t97 -41t97 41t41 97t-41 97t-97 41t-97 -41t-41 -97zM379 368q0 -28 20.5 -48.5t48.5 -20.5t48.5 20.5t20.5 48.5t-20.5 48.5t-48.5 20.5t-48.5 -20.5t-20.5 -48.5z" />
    <glyph glyph-name="house" unicode="&#x2302;" horiz-adv-x="930" 
d="M768 707q8 0 13 -5.5t5 -12.5v-227l122 -102q13 -11 3 -25l-35 -41q-4 -4 -12 -6h-1q-9 0 -12 3l-386 322l-386 -322q-14 -10 -25 3l-35 41q-4 5 -4 13t6 12l401 334q18 15 43 15q24 0 42 -15l136 -114v109q0 7 5.5 12.5t12.5 5.5h107zM143 29v267l1 2v2l321 264
l321 -264v-4v-267q0 -14 -10.5 -25t-24.5 -11h-215v214h-143v-214h-214q-14 0 -25 11t-11 25z" />
    <glyph glyph-name="uni25B4" unicode="&#x25b4;" horiz-adv-x="601" 
d="M15 171q0 15 11 26l250 250q10 10 25 10t25 -10l250 -250q10 -10 10 -26q0 -14 -10.5 -24.5t-24.5 -10.5h-500q-14 0 -25 10.5t-11 24.5z" />
    <glyph glyph-name="uni25B8" unicode="&#x25b8;" horiz-adv-x="351" 
d="M15 100v500q0 14 11 25t25 11t25 -11l250 -250q10 -10 10 -25t-10 -25l-250 -250q-11 -11 -25 -11t-25 11t-11 25z" />
    <glyph glyph-name="uni25BE" unicode="&#x25be;" horiz-adv-x="601" 
d="M15 457q0 14 11 25t25 11h500q14 0 24.5 -11t10.5 -25q0 -15 -10 -25l-250 -250q-11 -11 -25 -11t-25 11l-250 250q-11 11 -11 25z" />
    <glyph glyph-name="uni25C2" unicode="&#x25c2;" horiz-adv-x="351" 
d="M15 350q0 14 11 25l250 250q11 11 25 11t24.5 -11t10.5 -25v-500q0 -14 -10.5 -25t-24.5 -11t-25 11l-250 250q-11 11 -11 25z" />
    <glyph glyph-name="uni2602" unicode="&#x2602;" horiz-adv-x="959" 
d="M33 355q-7 0 -12.5 5.5t-5.5 12.5q0 1 1 3v1q25 101 95.5 177.5t166.5 114.5t201 38q161 0 291 -86q62 -40 108.5 -104t64.5 -140l1 -1v-3q0 -7 -5 -12.5t-13 -5.5q-7 0 -13 6q-23 22 -52 38q-23 13 -57 13q-86 0 -139 -90q-1 -2 -4.5 -8t-5 -8t-5 -4.5t-8.5 -2.5
q-8 0 -14 6.5t-12 18t-8 13.5q-55 75 -129 75q-85 0 -138 -90l-3 -7q-3 -5 -4.5 -6.5t-4 -4.5t-5.5 -4t-7 -1q-7 0 -13 6.5t-13 18t-8 13.5q-55 75 -128 75q-34 0 -57 -13q-29 -16 -52 -38q-6 -6 -13 -6zM229 64q0 14 11 25t25 11t25 -11t11 -25q0 -28 21.5 -49.5
t49.5 -21.5t50 21.5t22 49.5v324q18 6 35 6q18 0 36 -6v-324q0 -58 -42.5 -100.5t-100.5 -42.5t-100.5 42.5t-42.5 100.5zM444 724v55q0 14 10.5 24.5t24.5 10.5t25 -10.5t11 -24.5v-55q-16 1 -36 1q-19 0 -35 -1z" />
    <glyph glyph-name="uni2605" unicode="&#x2605;" horiz-adv-x="959" 
d="M15 489q0 22 31 26l280 40l126 254q11 23 27 23q17 0 28 -23l125 -254l280 -40q32 -5 32 -26q0 -12 -15 -27l-203 -197l48 -279q0 -1 0.5 -5t0.5 -7q0 -27 -23 -27q-10 0 -22 6l-251 132l-250 -132q-12 -6 -23 -6q-23 0 -23 27q0 7 1 12l48 279l-203 197q-14 16 -14 27z
" />
    <glyph glyph-name="uni2606" unicode="&#x2606;" horiz-adv-x="959" 
d="M206 -53q-23 0 -23 27q0 7 1 12l48 279l-203 197q-14 16 -14 27q0 22 31 26l280 40l126 254q11 23 27 23q17 0 28 -23l125 -254l280 -40q32 -5 32 -26q0 -12 -15 -27l-203 -197l48 -279q0 -1 0.5 -5t0.5 -7q0 -27 -23 -27q-10 0 -22 6l-251 132l-250 -132q-12 -6 -23 -6z
M138 455l171 -165l-41 -235l211 111l211 -111l-41 235l171 165l-235 35l-106 213l-105 -213z" />
    <glyph glyph-name="uni2611" unicode="&#x2611;" horiz-adv-x="958" 
d="M176 -7q-66 0 -113.5 47.5t-47.5 113.5v464q0 66 47.5 113.5t113.5 47.5h464q34 0 65 -14q8 -4 10 -13t-5 -16l-27 -28q-5 -5 -13 -5q-3 0 -5 1q-14 3 -25 3h-464q-37 0 -63.5 -26t-26.5 -63v-464q0 -37 26.5 -63.5t63.5 -26.5h464q37 0 63 26.5t26 63.5v141q0 8 5 13
l36 35q6 6 13 6q8 0 13 -5.5t5 -12.5v-177q0 -66 -47.5 -113.5t-113.5 -47.5h-464zM158 421q0 18 14 32l61 62q13 13 32 13t32 -13l147 -147l361 361q13 13 31 13q19 0 32 -13l62 -61q13 -13 13 -32t-13 -32l-455 -454q-14 -14 -31 -14q-18 0 -32 14l-240 240q-14 14 -14 31
z" />
    <glyph glyph-name="uni26A1" unicode="&#x26a1;" horiz-adv-x="530" 
d="M16 300l112 461q5 18 24 18h183q10 0 17.5 -7t7.5 -17q0 -6 -2 -10l-96 -258l221 54q6 2 7 2q13 0 21 -10.5t2 -22.5l-302 -646q-8 -14 -23 -14q-12 0 -20 8t-5 20l110 451l-226 -56l-3 -1h-4q-12 0 -19 8.5t-5 19.5z" />
    <glyph glyph-name="uni2709" unicode="&#x2709;" horiz-adv-x="1030" 
d="M104 -79q-37 0 -63 26.5t-26 63.5v607q0 37 26 63t63 26h822q37 0 63 -26t26 -63v-607q0 -37 -26 -63.5t-63 -26.5h-822zM86 11q0 -7 5 -12.5t13 -5.5h822q8 0 13 5.5t5 12.5v428q-21 -23 -39 -37q-160 -123 -238 -188l-17 -14q-10 -9 -14 -12l-13 -10q-8 -7 -15 -10
l-15 -9q-9 -5 -20 -10q-29 -13 -57 -13h-2q-25 0 -55.5 13t-49.5 27q-8 6 -46 38q-78 65 -238 188q-18 14 -39 37v-428zM86 618q0 -95 82 -159l108 -85l116 -92q33 -28 70 -54q34 -21 52 -21h2q28 0 77 38q4 3 45 37l116 92l108 85q29 23 55.5 63t26.5 75v14q0 14 -2 14
q-1 0 -3 5t-5 4t-8 2h-822q-8 0 -13 -5t-5 -13z" />
    <glyph glyph-name="uni2713" unicode="&#x2713;" horiz-adv-x="895" 
d="M15 332q0 22 16 38l76 76q16 16 37 16q22 0 38 -16l164 -165l367 367q16 16 37 16q22 0 38 -16l76 -76q16 -16 16 -38t-16 -38l-480 -480q-15 -15 -38 -15q-22 0 -37 15l-278 278q-16 16 -16 38z" />
    <glyph glyph-name="uni2714" unicode="&#x2714;" 
d="M15 350q0 123 60 219.5t153 151.5q101 58 216 58q123 0 219.5 -60t151.5 -154q57 -99 57 -215q0 -123 -60 -219.5t-153 -151.5q-101 -58 -215 -58q-123 0 -220 60t-152 154q-57 99 -57 215zM156 339q0 -15 10 -25l202 -202q10 -10 25 -10t25 10l303 303q11 11 11 25
q0 15 -11 26l-50 50q-11 11 -25 11q-15 0 -26 -11l-227 -227l-126 126q-11 11 -25 11q-15 0 -26 -11l-50 -50q-10 -10 -10 -26z" />
    <glyph glyph-name="uni2715" unicode="&#x2715;" horiz-adv-x="693" 
d="M15 112q0 22 16 38l164 164l-164 164q-16 16 -16 38t16 38l76 76q16 16 37 16q22 0 38 -16l164 -164l165 164q16 16 37 16q22 0 38 -16l76 -76q16 -16 16 -38t-16 -38l-164 -164l164 -164q16 -16 16 -38t-16 -38l-76 -76q-15 -15 -38 -15q-22 0 -37 15l-165 164
l-164 -164q-15 -15 -38 -15q-22 0 -37 15l-76 76q-16 16 -16 38z" />
    <glyph glyph-name="uni2716" unicode="&#x2716;" 
d="M15 350q0 123 60 219.5t153 151.5q101 58 216 58q123 0 219.5 -60t151.5 -154q57 -99 57 -215q0 -123 -60 -219.5t-153 -151.5q-101 -58 -215 -58q-123 0 -220 60t-152 154q-57 99 -57 215zM231 224q0 -15 11 -26l50 -50q11 -11 25 -11q15 0 26 11l101 101l101 -101
q11 -11 25 -11t25 11l51 50q10 10 10 26q0 15 -10 25l-101 101l101 101q10 10 10 25q0 16 -10 26l-51 50q-11 11 -25 11t-25 -11l-101 -101l-101 101q-11 11 -26 11q-14 0 -25 -11l-50 -50q-11 -11 -11 -26q0 -14 11 -25l101 -101l-101 -101q-11 -11 -11 -25z" />
    <glyph glyph-name="uni2795" unicode="&#x2795;" 
d="M15 350q0 123 60 219.5t153 151.5q101 58 216 58q123 0 219.5 -60t151.5 -154q57 -99 57 -215q0 -123 -60 -219.5t-153 -151.5q-101 -58 -215 -58q-123 0 -220 60t-152 154q-57 99 -57 215zM194 314q0 -14 10.5 -24.5t24.5 -10.5h143v-143q0 -14 11 -25t25 -11h71
q14 0 25 11t11 25v143h143q14 0 25 10.5t11 24.5v72q0 14 -11 24.5t-25 10.5h-143v143q0 14 -11 25t-25 11h-71q-14 0 -25 -11t-11 -25v-143h-143q-14 0 -24.5 -10.5t-10.5 -24.5v-72z" />
    <glyph glyph-name="uni2796" unicode="&#x2796;" 
d="M15 350q0 123 60 219.5t153 151.5q101 58 216 58q123 0 219.5 -60t151.5 -154q57 -99 57 -215q0 -123 -60 -219.5t-153 -151.5q-101 -58 -215 -58q-123 0 -220 60t-152 154q-57 99 -57 215zM194 314q0 -14 10.5 -24.5t24.5 -10.5h429q14 0 25 10.5t11 24.5v72
q0 14 -11 24.5t-25 10.5h-429q-14 0 -24.5 -10.5t-10.5 -24.5v-72z" />
    <glyph glyph-name="uni27F3" unicode="&#x27f3;" 
d="M15 350q0 90 35 168.5t91 134.5t134.5 91t168.5 35q169 0 295 -119l72 72q16 17 39 8q22 -9 22 -33v-250q0 -14 -11 -25t-25 -11h-250q-22 0 -32 22t7 39l77 77q-83 77 -194 77q-118 0 -202 -84t-84 -202t84 -202t202 -84q99 0 172 58t100 144q4 13 17 13h111
q8 0 13.5 -7t4.5 -15q-22 -99 -83.5 -175.5t-147.5 -117.5q-91 -43 -187 -43q-90 0 -168.5 35t-134.5 91t-91 134.5t-35 168.5z" />
    <glyph glyph-name="uniE701" unicode="&#xe701;" horiz-adv-x="494" 
d="M15 489q0 22 31 26l280 40l126 254q11 23 27 23v-747l-250 -132q-12 -6 -23 -6q-23 0 -23 27q0 7 1 12l48 279l-203 197q-14 16 -14 27z" />
    <glyph glyph-name="uniE702" unicode="&#xe702;" 
d="M15 350q0 123 60 219.5t153 151.5q101 58 216 58q123 0 219.5 -60t151.5 -154q57 -99 57 -215q0 -123 -60 -219.5t-153 -151.5q-101 -58 -215 -58q-123 0 -220 60t-152 154q-57 99 -57 215zM158 350q0 -118 84 -202t202 -84t202 84q83 83 83 202t-83 202q-84 84 -202 84
t-202 -84t-84 -202zM209 350q0 15 10 25l57 57q10 10 25 10t25 -10l82 -82l153 153q11 11 25 11q15 0 26 -11l56 -56q11 -11 11 -26q0 -14 -11 -25l-235 -235q-10 -10 -25 -10t-25 10l-164 164q-10 10 -10 25z" />
    <glyph glyph-name="uniE703" unicode="&#xe703;" 
d="M15 350q0 123 60 219.5t153 151.5q101 58 216 58q123 0 219.5 -60t151.5 -154q57 -99 57 -215q0 -123 -60 -219.5t-153 -151.5q-101 -58 -215 -58q-123 0 -220 60t-152 154q-57 99 -57 215zM158 350q0 -118 84 -202t202 -84t202 84q83 83 83 202t-83 202q-84 84 -202 84
t-202 -84t-84 -202zM244 243q0 15 10 25l82 82l-82 82q-10 10 -10 25t10 25l57 57q10 10 25 10q16 0 26 -10l82 -82l82 82q10 10 25 10t25 -10l57 -57q10 -10 10 -25t-10 -25l-82 -82l82 -82q10 -10 10 -25t-10 -25l-57 -57q-10 -10 -25 -10t-25 10l-82 82l-82 -82
q-10 -10 -26 -10q-15 0 -25 10l-57 57q-10 10 -10 25z" />
    <glyph glyph-name="uniE704" unicode="&#xe704;" 
d="M15 350q0 123 60 219.5t153 151.5q101 58 216 58q123 0 219.5 -60t151.5 -154q57 -99 57 -215q0 -123 -60 -219.5t-153 -151.5q-101 -58 -215 -58q-123 0 -220 60t-152 154q-57 99 -57 215zM229 444q0 -23 18 -23h107q8 0 13 5.5t5 12.5q0 6 6 15q23 39 66 39
q23 0 46.5 -12.5t23.5 -31.5q0 -31 -50 -57q-29 -15 -44.5 -25t-31.5 -33.5t-16 -54.5v-14q0 -13 2 -13q1 0 3.5 -4.5t4.5 -3.5q5 0 8 -1h107q16 0 18 19q1 23 28 37q42 23 59.5 37.5t34.5 44.5q21 36 21 76q0 55 -33 96.5t-80 61.5q-48 21 -101 21q-118 0 -182 -83
q-33 -42 -33 -96v-13zM372 82q0 -8 5 -13t13 -5h107q7 0 12.5 5t5.5 13v107q0 7 -5.5 12.5t-12.5 5.5h-107q-8 0 -13 -5.5t-5 -12.5v-107z" />
    <glyph glyph-name="uniE705" unicode="&#xe705;" 
d="M15 350q0 123 60 219.5t153 151.5q101 58 216 58q123 0 219.5 -60t151.5 -154q57 -99 57 -215q0 -123 -60 -219.5t-153 -151.5q-101 -58 -215 -58q-123 0 -220 60t-152 154q-57 99 -57 215zM301 82q0 -8 5.5 -13t12.5 -5h250q17 0 17 18v36q0 18 -17 18h-54v268
q0 17 -18 17h-178q-18 0 -18 -17v-36q0 -8 5.5 -13t12.5 -5h53v-214h-53q-7 0 -12.5 -5t-5.5 -13v-36zM372 511q0 -7 5 -12.5t13 -5.5h107q7 0 12.5 5.5t5.5 12.5v107q0 8 -5.5 13t-12.5 5h-107q-8 0 -13 -5t-5 -13v-107z" />
    <glyph glyph-name="uniE718" unicode="&#xe718;" horiz-adv-x="1030" 
d="M15 350q0 147 146 253q66 47 159 75.5t195 28.5q137 0 252.5 -48.5t180.5 -129.5q67 -82 67 -179t-67 -179q-65 -81 -180.5 -129.5t-252.5 -48.5q-44 0 -81 4q-111 -97 -257 -135q-27 -8 -63 -12q-21 -3 -27 21v1q-5 7 11 27l25 28q17 19 30 35.5t21 32.5q21 42 30 75
q-87 50 -138 123t-51 157z" />
    <glyph glyph-name="uniE75C" unicode="&#xe75c;" horiz-adv-x="899" 
d="M15 457q0 30 21 51l42 42q21 20 50 20q31 0 51 -20l271 -271l271 271q20 20 50 20t51 -20l42 -42q20 -21 20 -51t-20 -50l-364 -363q-22 -22 -50 -22q-31 0 -51 22l-363 363q-21 19 -21 50z" />
    <glyph glyph-name="uniE75D" unicode="&#xe75d;" horiz-adv-x="578" 
d="M15 386q0 29 21 50l363 364q20 20 51 20q30 0 50 -20l42 -42q21 -21 21 -51q0 -29 -21 -50l-271 -271l271 -271q21 -21 21 -51q0 -29 -21 -50l-42 -42q-20 -20 -50 -20q-31 0 -51 20l-363 363q-21 21 -21 51z" />
    <glyph glyph-name="uniE75E" unicode="&#xe75e;" horiz-adv-x="578" 
d="M15 64q0 30 21 51l271 271l-271 270q-21 22 -21 51t21 50l42 42q19 21 50 21q32 0 51 -21l363 -363q21 -21 21 -50q0 -28 -21 -51l-363 -363q-21 -21 -51 -21q-29 0 -50 21l-42 42q-21 22 -21 50z" />
    <glyph glyph-name="uniE75F" unicode="&#xe75f;" horiz-adv-x="899" 
d="M15 171q0 30 21 51l363 363q21 21 51 21q28 0 50 -21l363 -363q21 -21 21 -51t-20 -50l-42 -42q-21 -21 -51 -21q-31 0 -50 21l-271 271l-271 -271q-19 -21 -51 -21q-30 0 -50 21l-42 42q-21 19 -21 50z" />
    <glyph glyph-name="uniE7AC" unicode="&#xe7ac;" horiz-adv-x="1251" 
d="M1238 -50h-1224v900h1224v-900zM770 310v69h-287v-69h287zM158 379l285 122v86l-285 121v-89l188 -76l-188 -75v-89z" />
    <glyph glyph-name="uniE801" unicode="&#xe801;" horiz-adv-x="1031" 
d="M453 813q20 37 63 37q42 0 62 -37l429 -786q20 -37 -2 -71.5t-61 -34.5h-857q-39 0 -61.5 34t-1.5 72zM454 564q-6 0 -12.5 -5.5t-6.5 -12.5l10 -255q0 -12 19 -12h103q17 0 19 12l10 257q0 6 -6.5 11t-12.5 5h-123zM444 83q0 -8 5.5 -13.5t12.5 -5.5h107q7 0 12.5 5.5
t5.5 13.5v106q0 7 -5.5 12.5t-12.5 5.5h-107q-8 0 -13 -5.5t-5 -12.5v-106z" />
    <glyph glyph-name="uniE832" unicode="&#xe832;" horiz-adv-x="1030" 
d="M861 702l65 60q10 6 19 0.5t10 -13.5l58 -227q6 -23 -7 -35.5t-30 -8.5l-247 50q-11 3 -12.5 12.5t6.5 18.5l59 57q-113 118 -273 118q-151 0 -261 -104.5t-117 -253.5q0 -18 -19 -18h-84h-2l-2.5 1.5t-4.5 3t-3 5.5t-1 9q5 130 72.5 238.5t179 171.5t242.5 63
q207 0 352 -148zM169 -2l-64 -60q-10 -6 -19.5 -0.5t-10.5 13.5l-58 227q-6 23 7 35.5t30 8.5l248 -50q11 -3 12 -12.5t-7 -18.5l-59 -57q113 -118 274 -118q151 0 260.5 104.5t116.5 253.5q0 18 19 18h84h2l2.5 -1.5t4.5 -3t3 -5.5t1 -9q-4 -97 -44.5 -184.5t-106 -151
t-155 -100.5t-187.5 -37q-102 0 -193 39t-160 109z" />
    <glyph glyph-name="uniE840" unicode="&#xe840;" horiz-adv-x="1030" 
d="M519 -135q-158 0 -281.5 84t-184.5 223q-65 151 -22 353.5t161 309.5l-6 -157q6 8 38 8.5t40 -8.5q23 45 89 77t131 33q-31 -26 -67.5 -83t-31.5 -91q30 -10 136 -16q8 -3 5 -25.5t-17 -42.5q-12 -16 -36 -28t-43 -16l-18 -5l8 -105l-77 37q-18 -46 15.5 -81.5
t81.5 -27.5q34 6 76 31t66 23q34 -2 50 -18.5t11 -36.5q-4 -13 -19 -19.5t-28 -5.5h-13q-34 -53 -80.5 -75.5t-116.5 -16.5q74 -58 153.5 -52t143.5 46.5t90 92.5q33 76 15.5 162t-58.5 120q48 -21 76.5 -44.5t43.5 -62.5q8 95 -32.5 191.5t-116.5 158.5q148 -43 230 -156
t84 -289q1 -89 -37 -177t-102.5 -157t-158.5 -111.5t-198 -42.5z" />
    <glyph glyph-name="uniE841" unicode="&#xe841;" horiz-adv-x="1030" 
d="M515 181q-70 0 -119.5 49.5t-49.5 119.5t49.5 119.5t119.5 49.5t119.5 -49.5t49.5 -119.5t-49.5 -119.5t-119.5 -49.5zM438 -144q-181 28 -302 168t-121 326q0 149 82 274l188 -370q36 -80 115 -121t166 -25zM982 530q66 -169 5 -344.5t-222 -268.5q-128 -74 -278 -66
l226 347q52 71 48.5 160.5t-61.5 156.5zM126 664q115 143 295.5 177.5t343.5 -58.5q130 -75 196 -208l-414 22q-88 9 -163 -39t-104 -131z" />
    <glyph glyph-name="uniE843" unicode="&#xe843;" horiz-adv-x="993" 
d="M509 -59q-43 0 -89 8q-20 -22 -84.5 -52t-138 -43.5t-122.5 19.5q-77 61 -57 176t92 237t165 224t161 136v13q-98 -31 -206.5 -125.5t-160.5 -175.5q3 82 34 152t81 116t115 78.5t135.5 40t143.5 -0.5q231 138 343 96q45 -16 55 -73.5t-17 -139.5h-20q14 65 12 107.5
t-22.5 62.5t-50 24t-69.5 -7.5t-82 -32t-87 -50.5q148 -42 237.5 -166t68.5 -273h-561q0 -71 27.5 -111t98.5 -40q48 0 80 24.5t41 67.5h301q-40 -128 -157.5 -210t-266.5 -82zM396 -46q-79 19 -145 63.5t-111 107.5q-77 -167 -10 -223q28 -25 118.5 -8t147.5 60zM383 418
h252q0 60 -34.5 94.5t-93.5 34.5q-58 0 -91 -35t-33 -94z" />
    <glyph glyph-name="uniF08E" unicode="&#xf08e;" horiz-adv-x="1030" 
d="M176 -7q-66 0 -113.5 47.5t-47.5 113.5v464q0 66 47.5 113.5t113.5 47.5h393q17 0 17 -18v-36q0 -18 -17 -18h-393q-37 0 -63.5 -26t-26.5 -63v-464q0 -37 26.5 -63.5t63.5 -26.5h464q37 0 63 26.5t26 63.5v178q0 8 5.5 13t12.5 5h36q7 0 12.5 -5t5.5 -13v-178
q0 -66 -47.5 -113.5t-113.5 -47.5h-464zM397 314q0 7 6 13l364 364l-99 98q-10 10 -10 25q0 14 11 25t25 11h285q14 0 25 -11t11 -25v-285q0 -14 -11 -25t-25 -11q-15 0 -25 10l-98 99l-364 -364q-6 -6 -13 -6t-13 6l-63 63q-6 6 -6 13z" />
    <glyph glyph-name="uniF096" unicode="&#xf096;" horiz-adv-x="816" 
d="M176 -7q-66 0 -113.5 47.5t-47.5 113.5v464q0 66 47.5 113.5t113.5 47.5h464q66 0 113.5 -47.5t47.5 -113.5v-464q0 -66 -47.5 -113.5t-113.5 -47.5h-464zM86 154q0 -37 26.5 -63.5t63.5 -26.5h464q37 0 63 26.5t26 63.5v464q0 37 -26 63t-63 26h-464q-37 0 -63.5 -26
t-26.5 -63v-464z" />
    <glyph glyph-name="uniF097" unicode="&#xf097;" horiz-adv-x="744" 
d="M80 -66q-27 0 -46 18.5t-19 44.5v719q0 26 19 44.5t46 18.5h585q27 0 45.5 -18.5t18.5 -44.5v-719q0 -27 -18 -44.5t-46 -17.5q-27 0 -47 18l-246 236l-246 -236q-21 -19 -46 -19zM86 14l143 137l143 137l144 -138l142 -136v693h-572v-693z" />
    <glyph glyph-name="uniF09B" unicode="&#xf09b;" 
d="M15 350q0 123 60 219.5t153 151.5q101 58 216 58q123 0 219.5 -60t151.5 -154q57 -99 57 -215q0 -123 -60 -219.5t-153 -151.5q-101 -58 -215 -58q-123 0 -220 60t-152 154q-57 99 -57 215zM86 350q0 -115 70 -211q69 -95 180 -129v94q-27 -4 -38 -4q-61 0 -85 56
q-11 29 -32 46q-23 19 -23 22q0 7 15 7q10 0 18.5 -2.5t17 -10t11.5 -10.5t12 -16l9 -12q21 -28 54 -28q21 0 45 8q9 30 35 49q-91 9 -137 47q-44 37 -44 125q0 67 40 111q-8 26 -8 47q0 30 16 60q33 0 56 -10q22 -9 56 -34q40 10 95 10q45 0 85 -9q31 22 56 33q23 10 56 10
q15 -29 15 -60q0 -23 -8 -47q41 -47 41 -111q0 -89 -45 -126q-44 -37 -137 -46q39 -25 39 -73v-126q111 34 180 129q70 96 70 211q0 75 -29.5 141t-75.5 112t-111 75t-141 29t-141.5 -29t-111.5 -75t-75.5 -112t-29.5 -141z" />
    <glyph glyph-name="uniF09E" unicode="&#xf09e;" horiz-adv-x="816" 
d="M15 100q0 44 31.5 75.5t75.5 31.5t75.5 -31.5t31.5 -75.5t-31.5 -75.5t-75.5 -31.5t-75.5 31.5t-31.5 75.5zM15 457q0 15 10.5 25.5t25.5 10.5h3q186 -16 315 -146q130 -129 146 -316q1 -16 -9.5 -27t-26.5 -11h-75q-14 0 -24 9t-11 23q-12 128 -103 219t-219 103
q-14 1 -23 11t-9 24v75zM15 663v80q0 15 10.5 25.5t25.5 10.5h1q156 -8 288 -70t230 -161q99 -98 161 -230t70 -288q1 -15 -10 -26t-26 -11h-80q-14 0 -24.5 9.5t-11.5 23.5q-7 124 -57.5 231.5t-127.5 184.5t-185 128t-231 58q-14 1 -23.5 11t-9.5 24z" />
    <glyph glyph-name="uniF0C9" unicode="&#xf0c9;" 
d="M51 -7q-14 0 -25 11t-11 25v71q0 14 11 25t25 11h785q14 0 25 -11t11 -25v-71q0 -14 -11 -25t-25 -11h-785zM51 279q-14 0 -25 10.5t-11 24.5v72q0 14 11 24.5t25 10.5h785q14 0 25 -10.5t11 -24.5v-72q0 -14 -11 -24.5t-25 -10.5h-785zM15 600v71q0 14 11 25t25 11h785
q14 0 25 -11t11 -25v-71q0 -14 -11 -25t-25 -11h-785q-14 0 -25 11t-11 25z" />
    <glyph glyph-name="uniF0D5" unicode="&#xf0d5;" horiz-adv-x="959" 
d="M457 734q37 -23 60 -67t23 -97q0 -77 -44 -125l-30 -29q-27 -26 -38 -41q-13 -17 -13 -38q0 -26 33 -55l35 -28q30 -25 39.5 -35.5t28 -34t25.5 -48.5t7 -56q0 -89 -79 -157q-85 -73 -234 -73q-118 0 -195 57q-60 43 -60 117q0 40 21.5 77t52.5 60q86 62 251 67
q-35 45 -35 83q0 9 2 17t5.5 17t4.5 14q-15 -2 -39 -2q-83 0 -143 54q-59 53 -59 138q0 80 54.5 140.5t128.5 77.5q60 12 105 12h244l-76 -45h-75zM118 50q0 -58 39.5 -92t99.5 -48q35 -9 71 -9q77 0 126.5 32.5t49.5 98.5q0 36 -29 79q-6 10 -31 31q-20 18 -70 52
q-6 1 -28 1q-164 0 -213 -86q-15 -25 -15 -59zM288 738q-51 0 -80 -37.5t-29 -92.5q0 -91 58 -166q40 -52 97 -52q103 0 103 124q0 69 -36 143q-16 34 -45.5 57.5t-67.5 23.5zM586 564v72h143v143h72v-143h143v-72h-143v-143h-72v143h-143z" />
    <glyph glyph-name="uniF104" unicode="&#xf104;" horiz-adv-x="355" 
d="M15 314q0 7 6 13l260 260q6 6 12 6q7 0 13 -6l28 -28q6 -6 6 -13q0 -6 -6 -12l-219 -220l219 -219q6 -6 6 -13t-6 -13l-28 -28q-5 -5 -13 -5q-7 0 -12 5l-260 260q-6 6 -6 13z" />
    <glyph glyph-name="uniF105" unicode="&#xf105;" horiz-adv-x="355" 
d="M15 82q0 7 6 13l219 219l-219 220q-6 6 -6 12q0 7 6 13l27 28q6 6 13 6t13 -6l260 -260q6 -6 6 -13t-6 -13l-260 -260q-5 -5 -13 -5t-13 5l-27 28q-6 6 -6 13z" />
    <glyph glyph-name="uniF106" unicode="&#xf106;" horiz-adv-x="587" 
d="M15 189q0 7 6 13l260 260q6 6 12 6q7 0 13 -6l260 -260q6 -6 6 -13t-6 -13l-28 -27q-6 -6 -12 -6q-7 0 -13 6l-220 219l-219 -219q-6 -6 -13 -6t-13 6l-27 27q-6 6 -6 13z" />
    <glyph glyph-name="uniF107" unicode="&#xf107;" horiz-adv-x="587" 
d="M15 439q0 7 6 13l27 28q6 6 13 6t13 -6l219 -219l220 219q6 6 13 6q6 0 12 -6l28 -28q6 -6 6 -13t-6 -13l-260 -260q-5 -5 -13 -5q-7 0 -12 5l-260 260q-6 6 -6 13z" />
    <glyph glyph-name="uniF10C" unicode="&#xf10c;" 
d="M15 350q0 123 60 219.5t153 151.5q101 58 216 58q123 0 219.5 -60t151.5 -154q57 -99 57 -215q0 -123 -60 -219.5t-153 -151.5q-101 -58 -215 -58q-123 0 -220 60t-152 154q-57 99 -57 215zM158 350q0 -118 84 -202t202 -84t202 84q83 83 83 202t-83 202q-84 84 -202 84
t-202 -84t-84 -202z" />
    <glyph glyph-name="uniF111" unicode="&#xf111;" 
d="M15 350q0 123 60 219.5t153 151.5q101 58 216 58q123 0 219.5 -60t151.5 -154q57 -99 57 -215q0 -123 -60 -219.5t-153 -151.5q-101 -58 -215 -58q-123 0 -220 60t-152 154q-57 99 -57 215z" />
    <glyph glyph-name="u1F3A5" unicode="&#x1f3a5;" horiz-adv-x="1101" 
d="M15 154v392q0 66 47.5 113.5t113.5 47.5h393q66 0 113 -47.5t47 -113.5v-171l327 327q9 9 19.5 4t10.5 -17v-678q0 -18 -17 -18q-6 0 -13 5l-327 327v-171q0 -66 -47 -113.5t-113 -47.5h-393q-66 0 -113.5 47.5t-47.5 113.5z" />
    <glyph glyph-name="u1F3AF" unicode="&#x1f3af;" 
d="M51 279q-14 0 -25 10.5t-11 24.5v72q0 14 11 24.5t25 10.5h80q20 89 86 155.5t155 86.5v80q0 14 11 25t25 11h71q14 0 25 -11t11 -25v-80q89 -20 155.5 -86.5t86.5 -155.5h79q14 0 25 -10.5t11 -24.5v-72q0 -14 -11 -24.5t-25 -10.5h-79q-20 -89 -86.5 -155.5
t-155.5 -86.5v-80q0 -14 -11 -25t-25 -11h-71q-14 0 -25 11t-11 25v80q-89 20 -155 86.5t-86 155.5h-80zM204 279q18 -60 63 -105t105 -63v60q0 14 11 25t25 11h71q14 0 25 -11t11 -25v-60q60 18 105 63t63 105h-61q-14 0 -25 10.5t-11 24.5v72q0 14 11 24.5t25 10.5h61
q-18 60 -63 105t-105 63v-60q0 -14 -11 -25t-25 -11h-71q-14 0 -25 11t-11 25v60q-60 -18 -105 -63t-63 -105h61q14 0 25 -10.5t11 -24.5v-72q0 -14 -11 -24.5t-25 -10.5h-61z" />
    <glyph glyph-name="u1F44D" unicode="&#x1f44d;" 
d="M86 -7q-29 0 -50 21t-21 50v357q0 29 21 50.5t50 21.5h153q22 15 77 86q40 51 59 72q14 14 20 47q5 25 8.5 40t12 39.5t18 38t26 24t37.5 10.5q161 0 161 -179q0 -51 -27 -107h98q57 0 100 -42.5t43 -99.5q0 -49 -27 -91q5 -20 5 -38q0 -43 -21 -81q1 -8 1 -24
q0 -56 -33 -99q1 -77 -47 -122.5t-127 -45.5h-72q-49 0 -106 13q-43 10 -121 37q-63 22 -77 22h-161zM86 100q0 -14 11 -25t25 -11t25 11t11 25t-11 25t-25 11t-25 -11t-11 -25zM229 64h18q13 0 27.5 -3t23 -5.5t25 -8.5t21.5 -8q129 -46 207 -46h67q107 0 107 93
q0 20 -2 31q15 8 25.5 28.5t10.5 42.5q0 21 -10 38q29 28 29 67q0 36 -19 57q17 1 29.5 25.5t12.5 45.5q0 28 -22 50t-50 22h-196q0 32 27 89q26 55 26 89q0 57 -18.5 82.5t-70.5 25.5q-15 -15 -21 -48q-21 -100 -50 -131q-12 -13 -54 -66.5t-61 -72.5q-40 -40 -64 -40h-18
v-357z" />
    <glyph glyph-name="u1F44E" unicode="&#x1f44e;" 
d="M86 207q-29 0 -50 21.5t-21 50.5v357q0 29 21 50t50 21h161q14 0 77 22q80 27 125 37q57 13 111 13h63q78 0 126.5 -44.5t47.5 -120.5v-3q33 -44 33 -99q0 -16 -1 -24q21 -38 21 -81q0 -18 -5 -38q27 -42 27 -91q0 -57 -43 -99.5t-100 -42.5h-98q27 -55 27 -107
q0 -179 -161 -179q-40 0 -64 35.5t-30 81.5q-9 63 -28 83q-26 27 -59 71q-55 71 -77 86h-153zM86 600q0 -14 11 -25t25 -11t25 11t11 25t-11 25t-25 11t-25 -11t-11 -25zM229 279h18q24 0 64 -40q12 -11 72 -88l43 -51q29 -31 50 -131q6 -33 21 -48q52 0 70.5 25.5
t18.5 82.5q0 34 -26 89q-27 57 -27 89h196q28 0 50 22t22 50q0 21 -12.5 45.5t-29.5 25.5q19 21 19 57q0 39 -29 67q10 17 10 38q0 22 -10.5 42.5t-25.5 28.5q2 11 2 31q0 93 -103 93h-71q-74 0 -227 -53q-50 -18 -77 -18h-18v-357z" />
    <glyph glyph-name="u1F4CE" unicode="&#x1f4ce;" horiz-adv-x="811" 
d="M15 564q0 89 61 150q62 62 150 62t153 -63l337 -338q6 -6 6 -12q0 -8 -17.5 -25.5t-25.5 -17.5t-13 5l-338 339q-43 43 -101 43t-99.5 -42t-41.5 -101q0 -58 43 -101l433 -433q35 -35 81 -35q35 0 58.5 23.5t23.5 58.5q0 46 -35 81l-324 324q-16 14 -33 14q-16 0 -27 -11
t-11 -27q0 -17 14 -33l229 -228q5 -5 5 -13t-17.5 -25.5t-25.5 -17.5q-7 0 -12 5l-229 229q-35 35 -35 83q0 46 31.5 78t77.5 32q47 0 83 -36l324 -324q56 -54 56 -131q0 -65 -44 -109t-109 -44q-76 0 -131 55l-434 433q-63 64 -63 152z" />
    <glyph glyph-name="u1F4D5" unicode="&#x1f4d5;" horiz-adv-x="959" 
d="M21 96q0 2 2.5 23.5t-0.5 23.5q-3 10 -0.5 18t11.5 18.5t10 12.5q33 56 42 102q1 2 0.5 16.5t-0.5 16.5q1 3 9.5 14.5t9.5 13.5q43 75 36 119q-4 7 -0.5 14.5t4.5 9t9 9.5q20 19 36 60q14 33 15 54q0 2 -2 14t-1 15q1 5 5.5 11t11 13.5t8.5 9.5q5 7 20 42t32 46
q14 10 47 3l-1 -1q23 5 28 5h425q40 0 63 -31t11 -73l-153 -506q-19 -64 -40 -85q-20 -20 -72 -20h-485q-33 0 -21 -32q13 -39 80 -39h515q17 0 31.5 9t19.5 23l167 550q5 12 3 32q27 -11 40 -37t3 -59l-154 -505q-10 -34 -41.5 -59.5t-69.5 -25.5h-515q-45 0 -84 32t-54 72
q-13 37 -1 71zM290 439q-5 -18 12 -18h339q17 0 24 18l12 36q2 7 -1.5 12.5t-11.5 5.5h-339q-16 0 -23 -18zM336 582q-5 -18 12 -18h340q16 0 23 18l12 36q5 18 -12 18h-340q-16 0 -23 -18z" />
    <glyph glyph-name="u1F4DE" unicode="&#x1f4de;" horiz-adv-x="816" 
d="M15 589q0 52 28 104q31 56 60 68q39 18 77 18q6 0 12 -2q8 -3 46 -73q23 -42 47 -79q16 -24 16 -36t-16 -28q-11 -12 -35 -31t-34 -29q-16 -15 -16 -25q0 -9 3 -17t10 -18.5t8 -12.5q43 -77 97.5 -131.5t131.5 -97.5q1 -1 12.5 -8t19.5 -10t16 -3q11 0 25 15
q10 10 29.5 34.5t31.5 35.5q16 16 28 16q13 0 49 -26l49 -28l47 -26q39 -20 42 -29q2 -6 2 -12q0 -39 -18 -78q-12 -28 -68 -59q-52 -28 -103 -28q-21 0 -42.5 4t-35.5 9l-36 14q-23 8 -33 11q-51 18 -97 47q-69 43 -147 121t-121 147q-30 47 -68 156q-17 49 -17 87z" />
    <glyph glyph-name="u1F4F7" unicode="&#x1f4f7;" horiz-adv-x="1101" 
d="M158 -79q-58 0 -100.5 42.5t-42.5 100.5v500q0 58 42.5 100.5t100.5 42.5h125l28 76q10 25 38 46t59 21h286q31 0 58.5 -20.5t37.5 -46.5l29 -76h125q58 0 100 -42t42 -101v-500q0 -59 -42 -101t-100 -42h-786zM374 138q74 -74 177 -74q102 0 176 74t74 176
q0 103 -74 177q-73 73 -176 73q-104 0 -177 -73t-73 -177q0 -103 73 -176zM390 314q0 66 47.5 113.5t113.5 47.5t113 -47.5t47 -113.5t-47 -113t-113 -47t-113.5 47t-47.5 113z" />
    <glyph glyph-name="u1F50D" unicode="&#x1f50d;" horiz-adv-x="959" 
d="M944 -79q0 -28 -21.5 -49.5t-50.5 -21.5q-30 0 -50 21l-191 191q-101 -69 -223 -69q-83 0 -155 32t-123 83t-83 123t-32 155t32 155t83 123t123 83t155 32t155 -32t123 -83t83 -123t32 -155q0 -122 -69 -223l191 -191q21 -21 21 -51zM158 386q0 -104 73 -177t177 -73
q103 0 176 73q74 74 74 177q0 102 -74 176t-176 74q-103 0 -177 -74q-73 -73 -73 -176z" />
    <glyph glyph-name="u1F516" unicode="&#x1f516;" horiz-adv-x="744" 
d="M15 -3v719q0 26 19 44.5t46 18.5h585q27 0 45.5 -18.5t18.5 -44.5v-719q0 -27 -18 -44.5t-46 -17.5q-27 0 -47 18l-246 236l-246 -236q-21 -19 -46 -19q-27 0 -46 18.5t-19 44.5z" />
    <glyph glyph-name="u1F517" unicode="&#x1f517;" horiz-adv-x="941" 
d="M62 713l82 82q46 46 114 46t114 -47l115 -116q46 -46 46 -113q0 -69 -49 -117l49 -49q48 49 116 49q67 0 114 -47l116 -116q47 -47 47 -114t-48 -113l-82 -81q-47 -47 -113 -47q-67 0 -114 48l-115 115q-46 46 -46 114t49 116l-49 49q-48 -49 -116 -49q-67 0 -114 47
l-116 116q-47 47 -47 114t47 113zM345 564q11 0 21.5 -5t14.5 -8t15 -15l12 -12q18 18 18 41t-15 38l-115 115q-16 16 -38 16t-38 -15l-82 -82q-16 -16 -16 -37q0 -22 16 -38l116 -116q15 -15 38 -15q24 0 40 17q-2 2 -10 9t-12 11l-8 12q-5 7 -7.5 14.5t-2.5 16.5
q0 23 15 38t38 15zM514 207q0 -22 16 -38l115 -116q15 -15 38 -15t38 15l82 81q16 16 16 37q0 22 -16 38l-116 116q-16 16 -38 16q-23 0 -40 -18q1 -1 12 -11t14.5 -15t8.5 -15t5 -21q0 -23 -15.5 -38.5t-38.5 -15.5q-11 0 -21 5t-15 8.5t-15 14.5t-11 12q-19 -19 -19 -40z
" />
    <glyph glyph-name="u1F525" unicode="&#x1f525;" horiz-adv-x="816" 
d="M15 -96q0 17 18 17h750q18 0 18 -17v-36q0 -8 -5.5 -13t-12.5 -5h-750q-7 0 -12.5 5t-5.5 13v36zM158 350q0 65 26 108.5t72 83.5q14 13 49.5 40.5t52.5 43.5q50 46 50 99q0 54 -37 125h1q103 -48 167 -102q119 -101 119 -255q0 -65 -26 -108.5t-72 -83.5
q-15 -13 -50.5 -40.5t-52.5 -43.5q-49 -45 -49 -99t37 -125h-1q-103 48 -167 102q-119 101 -119 255z" />
  </font>
</defs></svg>
