<?xml version="1.0" encoding="UTF-8" standalone="no"?>
<!-- Created with Inkscape (http://www.inkscape.org/) -->

<svg
   xmlns:dc="http://purl.org/dc/elements/1.1/"
   xmlns:cc="http://creativecommons.org/ns#"
   xmlns:rdf="http://www.w3.org/1999/02/22-rdf-syntax-ns#"
   xmlns:svg="http://www.w3.org/2000/svg"
   xmlns="http://www.w3.org/2000/svg"
   xmlns:xlink="http://www.w3.org/1999/xlink"
   xmlns:sodipodi="http://sodipodi.sourceforge.net/DTD/sodipodi-0.dtd"
   xmlns:inkscape="http://www.inkscape.org/namespaces/inkscape"
   sodipodi:docname="pill-bottle.svg"
   inkscape:version="0.48.4 r9939"
   version="1.1"
   id="svg2"
   height="400.07581"
   width="400.83514">
  <defs
     id="defs4">
    <inkscape:path-effect
       effect="envelope"
       id="path-effect8134"
       is_visible="true"
       yy="true"
       xx="false"
       bendpath1="m 266.095,264.70809 c 50.1203,24.44811 102.15173,25.2121 158.22426,0"
       bendpath2="m 424.31926,264.70809 0,61.41658"
       bendpath3="m 266.095,326.12467 c 43.08078,26.40339 87.81801,42.39671 158.22426,0"
       bendpath4="m 266.095,264.70809 0,61.41658"
       bendpath1-nodetypes="cc"
       bendpath3-nodetypes="cc" />
    <inkscape:path-effect
       effect="envelope"
       id="path-effect7996"
       is_visible="true"
       yy="true"
       xx="true"
       bendpath1="m 266.095,264.70809 c 48.21005,29.20664 104.26495,21.60948 158.22426,0"
       bendpath2="m 424.31926,264.70809 c -1.96079,19.165 -2.25642,39.44011 0,61.41658"
       bendpath3="m 266.095,326.12467 c 64.6509,37.38688 116.03744,20.06229 158.22426,0"
       bendpath4="m 266.095,264.70809 c 0,20.03209 0,40.01589 0,61.41658"
       bendpath1-nodetypes="cc"
       bendpath3-nodetypes="cc"
       bendpath2-nodetypes="cc"
       bendpath4-nodetypes="cc" />
    <inkscape:path-effect
       effect="envelope"
       id="path-effect7989"
       is_visible="true"
       yy="true"
       xx="true"
       bendpath1="m 259.78908,269.44382 170.90916,0"
       bendpath2="m 430.69824,269.44382 0,58.46454"
       bendpath3="m 259.78908,327.90836 170.90916,0"
       bendpath4="m 259.78908,269.44382 0,58.46454" />
    <linearGradient
       id="linearGradient4084">
      <stop
         style="stop-color:#959b98;stop-opacity:1;"
         offset="0"
         id="stop4086" />
      <stop
         style="stop-color:#ffffff;stop-opacity:1;"
         offset="1"
         id="stop4088" />
    </linearGradient>
    <linearGradient
       id="linearGradient4011">
      <stop
         id="stop4013"
         offset="0"
         style="stop-color:#848282;stop-opacity:1;" />
      <stop
         id="stop4017"
         offset="0.5233379"
         style="stop-color:#f6f6f6;stop-opacity:1;" />
      <stop
         id="stop4019"
         offset="1"
         style="stop-color:#6a6b6e;stop-opacity:1;" />
    </linearGradient>
    <linearGradient
       id="linearGradient3766">
      <stop
         style="stop-color:#848282;stop-opacity:1;"
         offset="0"
         id="stop3768" />
      <stop
         id="stop3776"
         offset="0.5"
         style="stop-color:#f6f6f6;stop-opacity:1;" />
      <stop
         style="stop-color:#f6f6f6;stop-opacity:1;"
         offset="0.625"
         id="stop4021" />
      <stop
         style="stop-color:#f6f6f6;stop-opacity:1;"
         offset="0.75"
         id="stop4009" />
      <stop
         style="stop-color:#6a6b6e;stop-opacity:1;"
         offset="1"
         id="stop3770" />
    </linearGradient>
    <inkscape:perspective
       sodipodi:type="inkscape:persp3d"
       inkscape:vp_x="0 : 526.18109 : 1"
       inkscape:vp_y="0 : 1000 : 0"
       inkscape:vp_z="744.09448 : 526.18109 : 1"
       inkscape:persp3d-origin="372.04724 : 350.78739 : 1"
       id="perspective10" />
    <inkscape:perspective
       id="perspective2826"
       inkscape:persp3d-origin="0.5 : 0.33333333 : 1"
       inkscape:vp_z="1 : 0.5 : 1"
       inkscape:vp_y="0 : 1000 : 0"
       inkscape:vp_x="0 : 0.5 : 1"
       sodipodi:type="inkscape:persp3d" />
    <inkscape:perspective
       id="perspective2840"
       inkscape:persp3d-origin="0.5 : 0.33333333 : 1"
       inkscape:vp_z="1 : 0.5 : 1"
       inkscape:vp_y="0 : 1000 : 0"
       inkscape:vp_x="0 : 0.5 : 1"
       sodipodi:type="inkscape:persp3d" />
    <inkscape:perspective
       id="perspective3634"
       inkscape:persp3d-origin="0.5 : 0.33333333 : 1"
       inkscape:vp_z="1 : 0.5 : 1"
       inkscape:vp_y="0 : 1000 : 0"
       inkscape:vp_x="0 : 0.5 : 1"
       sodipodi:type="inkscape:persp3d" />
    <inkscape:perspective
       id="perspective3679"
       inkscape:persp3d-origin="0.5 : 0.33333333 : 1"
       inkscape:vp_z="1 : 0.5 : 1"
       inkscape:vp_y="0 : 1000 : 0"
       inkscape:vp_x="0 : 0.5 : 1"
       sodipodi:type="inkscape:persp3d" />
    <inkscape:perspective
       id="perspective3705"
       inkscape:persp3d-origin="0.5 : 0.33333333 : 1"
       inkscape:vp_z="1 : 0.5 : 1"
       inkscape:vp_y="0 : 1000 : 0"
       inkscape:vp_x="0 : 0.5 : 1"
       sodipodi:type="inkscape:persp3d" />
    <inkscape:perspective
       id="perspective3730"
       inkscape:persp3d-origin="0.5 : 0.33333333 : 1"
       inkscape:vp_z="1 : 0.5 : 1"
       inkscape:vp_y="0 : 1000 : 0"
       inkscape:vp_x="0 : 0.5 : 1"
       sodipodi:type="inkscape:persp3d" />
    <inkscape:perspective
       id="perspective3753"
       inkscape:persp3d-origin="0.5 : 0.33333333 : 1"
       inkscape:vp_z="1 : 0.5 : 1"
       inkscape:vp_y="0 : 1000 : 0"
       inkscape:vp_x="0 : 0.5 : 1"
       sodipodi:type="inkscape:persp3d" />
    <filter
       inkscape:collect="always"
       id="filter3816"
       color-interpolation-filters="sRGB">
      <feGaussianBlur
         inkscape:collect="always"
         stdDeviation="1.2975001"
         id="feGaussianBlur3818" />
    </filter>
    <inkscape:perspective
       id="perspective3828"
       inkscape:persp3d-origin="0.5 : 0.33333333 : 1"
       inkscape:vp_z="1 : 0.5 : 1"
       inkscape:vp_y="0 : 1000 : 0"
       inkscape:vp_x="0 : 0.5 : 1"
       sodipodi:type="inkscape:persp3d" />
    <linearGradient
       id="linearGradient3766-0">
      <stop
         style="stop-color:#b7b7b7;stop-opacity:1;"
         offset="0"
         id="stop3768-2" />
      <stop
         id="stop3776-5"
         offset="0.5"
         style="stop-color:#f6f6f6;stop-opacity:1;" />
      <stop
         style="stop-color:#b7b7b7;stop-opacity:1;"
         offset="1"
         id="stop3770-9" />
    </linearGradient>
    <linearGradient
       gradientTransform="translate(-419.45108,-449.63393)"
       y2="582.30579"
       x2="611.93561"
       y1="582.30579"
       x1="416.55353"
       gradientUnits="userSpaceOnUse"
       id="linearGradient3838"
       xlink:href="#linearGradient3766-0"
       inkscape:collect="always" />
    <linearGradient
       inkscape:collect="always"
       xlink:href="#linearGradient3766"
       id="linearGradient3862"
       gradientUnits="userSpaceOnUse"
       x1="416.55353"
       y1="582.30579"
       x2="611.93561"
       y2="582.30579"
       gradientTransform="translate(-460.62956,1.0101525)" />
    <linearGradient
       inkscape:collect="always"
       xlink:href="#linearGradient3766"
       id="linearGradient3866"
       gradientUnits="userSpaceOnUse"
       gradientTransform="translate(-460.62956,-128.28937)"
       x1="416.55353"
       y1="582.30579"
       x2="611.93561"
       y2="582.30579" />
    <linearGradient
       inkscape:collect="always"
       xlink:href="#linearGradient3766-0"
       id="linearGradient3870"
       gradientUnits="userSpaceOnUse"
       x1="416.55353"
       y1="582.30579"
       x2="611.93561"
       y2="582.30579"
       gradientTransform="translate(-580.83771,-2.0203051)" />
    <linearGradient
       inkscape:collect="always"
       xlink:href="#linearGradient3766-0"
       id="linearGradient3874"
       gradientUnits="userSpaceOnUse"
       gradientTransform="translate(-580.83771,-25.253814)"
       x1="416.55353"
       y1="582.30579"
       x2="611.93561"
       y2="582.30579" />
    <linearGradient
       inkscape:collect="always"
       xlink:href="#linearGradient3766"
       id="linearGradient3886"
       gradientUnits="userSpaceOnUse"
       x1="416.55353"
       y1="582.30579"
       x2="611.93561"
       y2="582.30579"
       gradientTransform="translate(-219.2031,0)" />
    <filter
       inkscape:collect="always"
       id="filter4080"
       color-interpolation-filters="sRGB">
      <feGaussianBlur
         inkscape:collect="always"
         stdDeviation="1.2509322"
         id="feGaussianBlur4082" />
    </filter>
    <filter
       inkscape:collect="always"
       id="filter4364"
       x="-1.0466547"
       width="3.0933094"
       y="-0.45446849"
       height="1.908937"
       color-interpolation-filters="sRGB">
      <feGaussianBlur
         inkscape:collect="always"
         stdDeviation="20.559288"
         id="feGaussianBlur4366" />
    </filter>
    <linearGradient
       inkscape:collect="always"
       xlink:href="#linearGradient4084"
       id="linearGradient4441"
       gradientUnits="userSpaceOnUse"
       gradientTransform="translate(-155.56349,-290.92393)"
       x1="519.32458"
       y1="451.48816"
       x2="516.00122"
       y2="483.53735" />
    <linearGradient
       inkscape:collect="always"
       xlink:href="#linearGradient3766-0"
       id="linearGradient4443"
       gradientUnits="userSpaceOnUse"
       gradientTransform="translate(-155.56349,-290.92393)"
       x1="416.55353"
       y1="582.30579"
       x2="611.93561"
       y2="582.30579" />
    <inkscape:perspective
       id="perspective4607"
       inkscape:persp3d-origin="195 : 130 : 1"
       inkscape:vp_z="390 : 195 : 1"
       inkscape:vp_y="0 : 1000 : 0"
       inkscape:vp_x="0 : 195 : 1"
       sodipodi:type="inkscape:persp3d" />
    <linearGradient
       inkscape:collect="always"
       xlink:href="#linearGradient4084"
       id="linearGradient3197"
       gradientUnits="userSpaceOnUse"
       gradientTransform="translate(-155.56349,-290.92393)"
       x1="519.32458"
       y1="451.48816"
       x2="516.00122"
       y2="483.53735" />
    <linearGradient
       inkscape:collect="always"
       xlink:href="#linearGradient3766-0"
       id="linearGradient3199"
       gradientUnits="userSpaceOnUse"
       gradientTransform="translate(-155.56349,-290.92393)"
       x1="416.55353"
       y1="582.30579"
       x2="611.93561"
       y2="582.30579" />
    <linearGradient
       inkscape:collect="always"
       xlink:href="#linearGradient3766-0"
       id="linearGradient3211"
       gradientUnits="userSpaceOnUse"
       gradientTransform="translate(-171.27778,-313.78107)"
       x1="416.55353"
       y1="582.30579"
       x2="611.93561"
       y2="582.30579" />
    <linearGradient
       inkscape:collect="always"
       xlink:href="#linearGradient4084"
       id="linearGradient3214"
       gradientUnits="userSpaceOnUse"
       gradientTransform="translate(-171.27778,-313.78107)"
       x1="519.32458"
       y1="451.48816"
       x2="516.00122"
       y2="483.53735" />
  </defs>
  <sodipodi:namedview
     id="base"
     pagecolor="#ffffff"
     bordercolor="#666666"
     borderopacity="1.0"
     inkscape:pageopacity="0.0"
     inkscape:pageshadow="2"
     inkscape:zoom="1.34"
     inkscape:cx="202.92275"
     inkscape:cy="190.83877"
     inkscape:document-units="px"
     inkscape:current-layer="layer1"
     showgrid="false"
     inkscape:window-width="1022"
     inkscape:window-height="981"
     inkscape:window-x="1281"
     inkscape:window-y="1"
     inkscape:window-maximized="0"
     inkscape:snap-global="false"
     fit-margin-top="21"
     fit-margin-left="104"
     fit-margin-right="104"
     fit-margin-bottom="20" />
  <metadata
     id="metadata7">
    <rdf:RDF>
      <cc:Work
         rdf:about="">
        <dc:format>image/svg+xml</dc:format>
        <dc:type
           rdf:resource="http://purl.org/dc/dcmitype/StillImage" />
        <dc:title />
        <dc:creator>
          <cc:Agent>
            <dc:title>Sergio Luiz Araujo Silva</dc:title>
          </cc:Agent>
        </dc:creator>
        <dc:subject>
          <rdf:Bag>
            <rdf:li>pill</rdf:li>
            <rdf:li>bottle</rdf:li>
            <rdf:li>medicine</rdf:li>
            <rdf:li>hospital</rdf:li>
            <rdf:li>pharmacy</rdf:li>
          </rdf:Bag>
        </dc:subject>
        <cc:license
           rdf:resource="http://creativecommons.org/licenses/publicdomain/" />
      </cc:Work>
      <cc:License
         rdf:about="http://creativecommons.org/licenses/publicdomain/">
        <cc:permits
           rdf:resource="http://creativecommons.org/ns#Reproduction" />
        <cc:permits
           rdf:resource="http://creativecommons.org/ns#Distribution" />
        <cc:permits
           rdf:resource="http://creativecommons.org/ns#DerivativeWorks" />
      </cc:License>
    </rdf:RDF>
  </metadata>
  <g
     inkscape:label="Camada 1"
     inkscape:groupmode="layer"
     id="layer1"
     style="display:inline"
     transform="translate(-141.41931,-24.736607)">
    <path
       transform="translate(-7.142857,0)"
       style="font-size:medium;font-style:normal;font-variant:normal;font-weight:normal;font-stretch:normal;text-indent:0;text-align:start;text-decoration:none;line-height:normal;letter-spacing:normal;word-spacing:normal;text-transform:none;direction:ltr;block-progression:tb;writing-mode:lr-tb;text-anchor:start;color:#000000;fill:#cccccc;fill-opacity:1;stroke:none;stroke-width:2.3395493;marker:none;visibility:visible;display:inline;overflow:visible;enable-background:accumulate;font-family:'.PhonepadTwo';-inkscape-font-specification:'.PhonepadTwo'"
       d="m 339.46875,49.15625 c -18.52695,0 -35.2713,2.922151 -47.625,7.8125 -6.17685,2.445174 -11.26942,5.371444 -14.96875,8.84375 -3.69933,3.472306 -6.03125,7.646897 -6.03125,12.21875 l 0,47.03125 -1.90625,6.46875 a 2.8574286,2.8574286 0 0 0 -0.0937,0.8125 c 0,2.17553 0.69014,4.23673 1.6875,6.1875 -2.93201,3.33099 -4.78125,7.1184 -4.78125,11.21875 0,3.386 1.24228,6.56613 3.3125,9.4375 -9.97276,6.96219 -16.5,15.48012 -16.5,25.21875 a 2.8574286,2.8574286 0 0 0 0,0.0937 l 5.625,150 c 0,0.0317 -5e-5,0.0621 0,0.0937 0.0317,20.15451 10.13655,37.86601 26.53125,50.34375 16.42047,12.49736 39.12237,19.875 64.71875,19.875 25.59638,0 48.29058,-7.37795 64.71875,-19.875 16.40239,-12.47744 26.53075,-30.18847 26.5625,-50.34375 5e-5,-0.0317 0,-0.0621 0,-0.0937 l 4.125,-150 a 2.8574286,2.8574286 0 0 0 0,-0.0937 c 0,-9.45659 -6.03765,-17.81402 -15.34375,-24.6875 2.31277,-3.01732 3.71875,-6.37397 3.71875,-9.96875 0,-4.46779 -2.1691,-8.5474 -5.59375,-12.09375 0.73835,-1.69391 1.25,-3.45737 1.25,-5.3125 a 2.8574286,2.8574286 0 0 0 -0.0937,-0.8125 l -1.90625,-6.46875 0,-47.03125 c 0,-4.571854 -2.33192,-8.746444 -6.03125,-12.21875 -3.69933,-3.472306 -8.7919,-6.398576 -14.96875,-8.84375 -12.3537,-4.890349 -29.09806,-7.8125 -47.625,-7.8125 l -18.78125,0 z"
       id="path4491"
       inkscape:connector-curvature="0" />
    <path
       inkscape:connector-curvature="0"
       sodipodi:nodetypes="cccscccc"
       id="path4419"
       d="m 343.70883,137.35286 c -50.14607,0 -94.03553,19.07364 -94.03553,42.78125 l 5.62923,150.09375 c 0,38.4917 38.31538,67.46875 88.40625,67.46875 50.09087,0 88.4375,-28.97705 88.4375,-67.46875 l 4.11401,-150.09375 c 0,-23.70761 -42.40549,-42.78125 -92.55156,-42.78125 l 10e-5,0 z"
       style="color:#000000;fill:#b3b3b3;fill-opacity:1;stroke:#000000;stroke-width:4;stroke-miterlimit:4;stroke-dasharray:none;marker:none;visibility:visible;display:inline;overflow:visible;enable-background:accumulate" />
    <path
       transform="matrix(1.1988156,0,0,1.9063864,-18.992643,-783.81441)"
       d="m 375.00002,505.57648 c 0,10.84845 -33.09895,19.64285 -73.92858,19.64285 -40.82962,0 -73.92857,-8.7944 -73.92857,-19.64285 0,-10.84845 33.09895,-19.64286 73.92857,-19.64286 40.82963,0 73.92858,8.79441 73.92858,19.64286 z"
       sodipodi:ry="19.642857"
       sodipodi:rx="73.928574"
       sodipodi:cy="505.57648"
       sodipodi:cx="301.07144"
       id="path4421"
       style="color:#000000;fill:#ececec;fill-opacity:1;stroke:none;stroke-width:1;marker:none;visibility:visible;display:inline;overflow:visible;filter:url(#filter4080);enable-background:accumulate"
       sodipodi:type="arc" />
    <path
       transform="matrix(1.1141601,0,0,1.86147,11.605517,-745.0684)"
       d="m 353.57142,489.86218 c 0,6.90356 -25.42383,12.5 -56.78571,12.5 -31.36189,0 -56.78572,-5.59644 -56.78572,-12.5 0,-6.90356 25.42383,-12.5 56.78572,-12.5 31.36188,0 56.78571,5.59644 56.78571,12.5 z"
       sodipodi:ry="12.5"
       sodipodi:rx="56.785713"
       sodipodi:cy="489.86218"
       sodipodi:cx="296.78571"
       id="path4423"
       style="color:#000000;fill:#7e7e7e;fill-opacity:1;fill-rule:nonzero;stroke:#4d4d4d;stroke-width:1.88871789;stroke-miterlimit:4;stroke-dasharray:none;marker:none;visibility:visible;display:inline;overflow:visible;enable-background:accumulate"
       sodipodi:type="arc" />
    <rect
       rx="76.202652"
       ry="29.12063"
       y="116.34994"
       x="262.87015"
       height="58.241261"
       width="161.78191"
       id="rect4425"
       style="color:#000000;fill:url(#linearGradient3214);fill-opacity:1;fill-rule:nonzero;stroke:#000000;stroke-width:4;stroke-linecap:butt;stroke-linejoin:miter;stroke-miterlimit:4;stroke-opacity:1;stroke-dasharray:none;stroke-dashoffset:0;marker:none;visibility:visible;display:inline;overflow:visible;enable-background:accumulate" />
    <path
       inkscape:connector-curvature="0"
       sodipodi:nodetypes="ccccccccccc"
       id="path4427"
       d="m 333.74357,47.727864 18.77386,0 c 36.44653,0 65.78796,11.60066 65.78796,26.01046 l 0,47.528216 2,6.78975 c 0,14.4098 -31.34143,26.01046 -67.78796,26.01046 l -18.77386,0 c -36.44654,0 -67.78797,-11.60066 -67.78797,-26.01046 l 2,-6.78975 0,-47.528216 c 0,-14.4098 29.34143,-26.01046 65.78797,-26.01046 z"
       style="color:#000000;fill:url(#linearGradient3211);fill-opacity:1;fill-rule:nonzero;stroke:#000000;stroke-width:4;stroke-linecap:butt;stroke-linejoin:miter;stroke-miterlimit:4;stroke-opacity:1;stroke-dasharray:none;stroke-dashoffset:0;marker:none;visibility:visible;display:inline;overflow:visible;enable-background:accumulate" />
    <path
       transform="matrix(0.62100462,0,0,0.74802167,139.08611,-187.10992)"
       d="m 440.00002,343.79074 c 0,14.20161 -49.88828,25.71429 -111.42858,25.71429 -61.5403,0 -111.42857,-11.51268 -111.42857,-25.71429 0,-14.20161 49.88827,-25.71428 111.42857,-25.71428 61.5403,0 111.42858,11.51267 111.42858,25.71428 z"
       sodipodi:ry="25.714285"
       sodipodi:rx="111.42857"
       sodipodi:cy="343.79074"
       sodipodi:cx="328.57144"
       id="path4429"
       style="color:#000000;fill:#ffffff;fill-opacity:1;fill-rule:nonzero;stroke:none;stroke-width:3.51443887;marker:none;visibility:visible;display:inline;overflow:visible;filter:url(#filter3816);enable-background:accumulate"
       sodipodi:type="arc" />
    <path
       sodipodi:type="arc"
       style="color:#000000;fill:#ffffff;fill-opacity:1;fill-rule:nonzero;stroke:#808080;stroke-width:4.185987;stroke-miterlimit:4;stroke-opacity:1;stroke-dasharray:none;marker:none;visibility:visible;display:inline;overflow:visible;enable-background:accumulate"
       id="path4431"
       sodipodi:cx="328.57144"
       sodipodi:cy="343.79074"
       sodipodi:rx="111.42857"
       sodipodi:ry="25.714285"
       d="m 440.00002,343.79074 c 0,14.20161 -49.88828,25.71429 -111.42858,25.71429 -61.5403,0 -111.42857,-11.51268 -111.42857,-25.71429 0,-14.20161 49.88827,-25.71428 111.42857,-25.71428 61.5403,0 111.42858,11.51267 111.42858,25.71428 z"
       transform="matrix(0.59286023,0,0,0.67278705,148.33354,-162.25511)" />
    <path
       inkscape:connector-curvature="0"
       id="path4433"
       d="m 271.07104,118.55174 0,2.71875 a 3.0981966,3.0981966 0 0 1 -0.125,0.875 l -1.84375,6.21875 c 0.1067,2.38653 1.44317,4.86993 4.40625,7.5 3.09132,2.7439 7.82694,5.4293 13.78125,7.6875 11.90862,4.5164 28.57387,7.40625 46.46875,7.40625 l 18.78125,0 c 17.89488,0 34.56013,-2.88985 46.46875,-7.40625 5.95431,-2.2582 10.68993,-4.9436 13.78125,-7.6875 2.96308,-2.63007 4.29955,-5.11347 4.40625,-7.5 l -1.84375,-6.21875 a 3.0981966,3.0981966 0 0 1 -0.125,-0.875 l 0,-2.71875 c -4.99499,3.93329 -11.78827,7.12547 -20.03125,9.625 -11.99759,3.63804 -26.85796,5.75 -42.65625,5.75 l -18.78125,0 c -15.79678,0 -30.6275,-2.11175 -42.625,-5.75 -8.24292,-2.49967 -15.06687,-5.69222 -20.0625,-9.625 z"
       style="color:#000000;fill:#f2f2f2;fill-opacity:1;fill-rule:nonzero;stroke:none;stroke-width:3;marker:none;visibility:visible;display:inline;overflow:visible;enable-background:accumulate" />
    <path
       transform="matrix(1.159713,0,0,1.0723496,-241.50633,-364.30709)"
       d="m 521.42858,609.50507 c 0,29.98117 -10.55329,54.28571 -23.57143,54.28571 -13.01814,0 -23.57143,-24.30454 -23.57143,-54.28571 0,-29.98118 10.55329,-54.28572 23.57143,-54.28572 13.01814,0 23.57143,24.30454 23.57143,54.28572 z"
       sodipodi:ry="54.285713"
       sodipodi:rx="23.571428"
       sodipodi:cy="609.50507"
       sodipodi:cx="497.85715"
       id="path4435"
       style="color:#000000;fill:#ffffff;fill-opacity:0.59923664;fill-rule:nonzero;stroke:none;stroke-width:3;marker:none;visibility:visible;display:inline;overflow:visible;filter:url(#filter4364);enable-background:accumulate"
       sodipodi:type="arc" />
    <path
       inkscape:connector-curvature="0"
       sodipodi:nodetypes="cscccscc"
       id="path4437"
       d="m 257.33056,336.84439 c 14.9467,13.69772 45.79836,36.06204 87.89166,36.06204 39.53279,0 68.95219,-19.7216 84.79017,-33.46875 0.49532,-3.00102 0.92858,-6.08071 0.92858,-9.21875 l 1.70092,-90.875 c -13.27877,9.99024 -40.2369,24.96391 -88.16967,25.96875 -51.05018,1.07019 -78.5913,-16.7262 -90.74559,-27.28585 l 3.60393,98.81756 z"
       style="fill:#34495e;fill-opacity:1;stroke:none" />
    <path
       inkscape:connector-curvature="0"
       sodipodi:nodetypes="ccsccscc"
       id="path4439"
       d="m 253.7323,235.87072 0.0446,2.33035 c 12.43717,10.99912 40.24553,29.37227 92,28.26786 45.18258,-0.96417 72.48789,-14.43753 86.98857,-24.66992 l -0.0205,-2.67872 c -13.85356,10.07127 -41.11504,24.02509 -87.03054,25.00489 -51.18303,1.09221 -79.24179,-17.04373 -91.3125,-27.71875 l -0.66967,-0.53571 z"
       style="font-size:medium;font-style:normal;font-variant:normal;font-weight:normal;font-stretch:normal;text-indent:0;text-align:start;text-decoration:none;line-height:normal;letter-spacing:normal;word-spacing:normal;text-transform:none;direction:ltr;block-progression:tb;writing-mode:lr-tb;text-anchor:start;color:#000000;fill:#cccccc;fill-opacity:1;stroke:none;stroke-width:2.3395493;marker:none;visibility:visible;display:inline;overflow:visible;enable-background:accumulate;font-family:'.PhonepadTwo';-inkscape-font-specification:'.PhonepadTwo'" />
    <path
       sodipodi:nodetypes="czc"
       inkscape:connector-curvature="0"
       id="path3991"
       d="m 260.27797,336.25077 c 0,0 32.17566,37.13459 84.43067,36.41072 52.25501,-0.72388 88.12449,-37.4661 88.12449,-37.4661"
       style="fill:none;stroke:#000000;stroke-width:1px;stroke-linecap:butt;stroke-linejoin:miter;stroke-opacity:1" />
    <path
       style="font-size:82px;font-style:normal;font-variant:normal;font-weight:bold;font-stretch:normal;text-align:center;line-height:125%;letter-spacing:-5.0999999px;word-spacing:0px;writing-mode:lr-tb;text-anchor:middle;fill:#f0f0f0;fill-opacity:1;stroke:none;font-family:Source Code Pro;-inkscape-font-specification:Source Code Pro Bold"
       d="m 265.82516,264.31029 c 1.69597,21.04523 1.74101,41.18207 0.13514,60.41051 2.65877,1.62246 5.33701,3.21377 8.03882,4.75976 0.43264,-1.33242 0.85648,-2.67358 1.27089,-4.02373 0.0995,0.0551 0.19899,0.11015 0.29852,0.16511 1.31177,2.6062 2.72346,4.81601 4.25835,6.6542 1.53484,1.83816 3.12203,3.20217 4.80559,4.06026 2.01964,1.02937 4.03032,1.47617 6.03625,1.30581 2.00586,-0.17041 3.88016,-0.97471 5.56942,-2.40757 1.68284,-1.4275 3.10239,-3.49837 4.21205,-6.17827 0.004,-0.0101 0.008,-0.0202 0.0125,-0.0304 1.10776,-2.6959 1.74578,-6.01678 1.88919,-9.93421 0.12768,-3.48962 -0.13827,-6.79298 -0.8126,-9.87786 -0.0981,-0.44889 -0.20338,-0.89048 -0.31556,-1.3248 -0.66266,-2.55175 -1.56577,-4.85316 -2.67952,-6.91724 -1.3035,-2.41555 -2.90797,-4.46832 -4.80816,-6.22289 -1.90026,-1.75451 -3.99289,-3.07694 -6.26462,-3.95148 -1.77885,-0.68472 -3.56446,-0.93117 -5.32297,-0.78457 -1.75856,0.14666 -3.3221,0.68329 -4.69725,1.63367 0.0396,-2.27572 0.0535,-4.56575 0.0412,-6.87014 -0.2525,-5.17024 -0.63044,-10.40217 -1.13382,-15.69578 -3.55929,-1.48572 -7.07274,-3.07783 -10.5334,-4.77042 0,0 0,0 0,0 z m 122.55023,12.82979 c -0.29271,3.68617 -0.53174,7.35466 -0.71711,11.00544 3.61502,-0.97461 7.2101,-2.05876 10.78141,-3.24331 -0.71075,12.15841 -0.75859,24.05487 -0.14351,35.6894 0.29887,5.6536 1.86779,9.60481 4.50801,11.75599 2.64018,2.15119 6.27514,2.05689 10.74941,-0.35015 1.09528,-0.58925 2.07865,-1.18025 2.96324,-1.78987 0.88455,-0.60954 1.72689,-1.26581 2.50325,-1.9128 0.77629,-0.64694 1.54159,-1.32591 2.30564,-2.06143 0.76399,-0.73547 1.59039,-1.54279 2.48653,-2.42158 -1.06173,-2.49052 -2.08444,-5.02779 -3.06488,-7.61188 -1.04841,1.09848 -2.0392,1.97663 -2.92443,2.6578 -0.88528,0.68124 -1.71825,1.25306 -2.52759,1.67725 -0.71494,0.37473 -1.41731,0.6038 -2.12811,0.73073 -0.71086,0.127 -1.38395,0.0809 -1.97654,-0.18865 -0.59263,-0.26947 -1.07156,-0.79108 -1.44359,-1.53268 -0.37207,-0.74156 -0.59669,-1.78016 -0.66826,-3.1121 -0.79906,-14.86552 -0.42596,-30.25956 1.11931,-46.18212 -7.15045,2.67307 -14.43751,4.99013 -21.82278,6.88996 0,0 0,0 0,0 z m -72.58592,10.45227 c -0.2754,4.12924 -0.60062,8.24055 -0.98281,12.33024 -3.28005,-0.46962 -6.54991,-1.04812 -9.80367,-1.72847 0.0976,3.41988 0.14421,6.82465 0.13994,10.21431 3.07463,0.873 6.16373,1.65365 9.26142,2.33376 -0.014,5.51897 -0.13756,11.01388 -0.37073,16.48473 -0.13059,3.06382 -0.002,5.89149 0.40378,8.52905 0.4056,2.63756 1.19328,5.02258 2.38376,7.12244 1.19045,2.09986 2.80365,3.90549 4.89356,5.34785 2.08985,1.44235 4.73526,2.43576 7.889,2.84366 1.88882,0.24428 3.6802,0.28413 5.37694,0.12356 0.60859,-0.0574 1.20482,-0.14059 1.78894,-0.24919 2.21252,-0.41135 4.19779,-0.96937 5.96476,-1.60202 -0.68313,-3.41596 -1.34716,-6.8395 -1.99907,-10.26874 -1.14971,0.48568 -2.36551,0.85177 -3.64478,1.09946 -0.59344,0.11489 -1.20907,0.1879 -1.84874,0.21862 -0.73967,0.0383 -1.51222,0.0201 -2.32049,-0.0553 -2.80444,-0.26164 -4.84723,-1.28372 -6.07795,-2.97054 -1.23077,-1.68683 -1.74565,-4.37762 -1.63975,-8.00822 0.16138,-5.53381 0.24958,-11.0776 0.2646,-16.63135 3.35868,0.46409 6.71926,0.79954 10.07432,0.99601 1.88132,0.12352 3.77301,0.20459 5.6735,0.24375 0.006,-3.70809 0.008,-7.41652 0.006,-11.12526 -1.90752,-0.0363 -3.8075,-0.11191 -5.6986,-0.227 -3.37199,-0.18566 -6.74809,-0.50008 -10.12173,-0.93505 -0.0621,-4.22406 -0.16643,-8.45385 -0.31284,-12.68939 -3.10764,-0.37432 -6.20885,-0.84141 -9.29942,-1.39694 0,0 0,0 0,0 z m 41.47057,1.9082 c -0.58282,4.27715 -1.12847,8.55284 -1.64494,12.82808 -3.33471,0.47598 -6.6717,0.84582 -10.00463,1.10126 -0.01,3.51182 -0.0166,7.02349 -0.0199,10.53501 3.13896,-0.0606 6.28188,-0.22957 9.42237,-0.49995 0.003,5.61786 0.0485,11.23415 0.13677,16.84888 0.0494,3.14439 0.39356,5.95531 1.03102,8.46012 0.63743,2.50483 1.66881,4.60169 3.08234,6.24377 1.41352,1.64209 3.22794,2.81216 5.45497,3.43455 2.22698,0.6224 4.93112,0.5818 8.02207,-0.18352 1.10357,-0.27325 2.16112,-0.6 3.17475,-0.97855 1.29689,-0.48428 2.52226,-1.05202 3.68229,-1.70162 2.06681,-1.15739 3.89907,-2.34996 5.5188,-3.52525 -0.96121,-2.98728 -1.87429,-6.00855 -2.74153,-9.06079 -1.08094,0.82872 -2.23448,1.57172 -3.46174,2.23033 -1.14819,0.61615 -2.39994,1.10647 -3.77573,1.47212 0,0 0,0 0,0 -0.0945,0.0252 -0.18951,0.0498 -0.28515,0.0738 -2.75809,0.6918 -4.82903,0.40795 -6.18256,-0.81662 -1.35358,-1.22455 -2.1143,-3.68832 -2.22294,-7.3058 -0.16565,-5.51378 -0.25384,-11.03774 -0.26457,-16.5719 2.71954,-0.43607 5.43148,-0.94252 8.13161,-1.51468 2.55261,-0.5385 5.09675,-1.14339 7.63159,-1.81044 -0.007,-3.59408 0.0367,-7.20258 0.12966,-10.82551 -2.5429,0.63093 -5.09435,1.20268 -7.65323,1.7116 -2.7106,0.54097 -5.43141,1.01906 -8.15902,1.43015 0.0697,-4.2094 0.18402,-8.42466 0.34292,-12.64579 -3.10687,0.44129 -6.22312,0.79987 -9.34525,1.0708 0,0 0,0 0,0 z m -72.64442,10.92065 c 2.23647,0.95861 3.93225,2.64376 5.04486,5.11312 1.11261,2.46936 1.64193,5.72378 1.49381,9.71817 -0.17027,4.59022 -1.07248,7.6077 -2.58633,9.00718 -1.51392,1.39948 -3.27524,1.58311 -5.25903,0.60328 -0.96683,-0.47754 -1.98726,-1.22634 -3.03927,-2.20902 -1.05206,-0.9827 -2.04035,-2.25439 -2.98486,-3.80928 0.36669,-5.71614 0.56209,-11.51649 0.58621,-17.40107 2.20975,-1.63682 4.4346,-2.01245 6.74461,-1.02238 z"
       id="path7981"
       inkscape:connector-curvature="0"
       inkscape:path-effect="#path-effect8134"
       inkscape:original-d="m 266.095,264.70809 0,60.36616 8.73719,0 0.89687,-4.6284 0.31824,0 c 1.56919,1.83651 3.23007,3.22558 4.97615,4.20167 1.74603,0.97609 3.4939,1.47714 5.26546,1.47715 2.1252,-10e-6 4.15605,-0.50976 6.10447,-1.5428 1.94835,-1.03305 3.68932,-2.54883 5.2076,-4.52993 1.5182,-1.98109 2.73402,-4.41595 3.64532,-7.28727 0.91121,-2.8713 1.35972,-6.14002 1.35976,-9.81483 -4e-5,-3.27347 -0.33264,-6.25786 -1.04152,-8.92855 -0.70896,-2.67063 -1.71844,-4.92942 -3.00883,-6.79488 -1.29047,-1.86541 -2.87549,-3.29901 -4.77364,-4.33297 -1.89822,-1.03389 -4.00838,-1.57559 -6.33591,-1.57563 -1.82254,4e-5 -3.67865,0.45175 -5.52584,1.31302 -1.84724,0.86135 -3.5089,2.05997 -4.97616,3.61081 l 0.31825,-6.72923 0,-14.80432 -11.16741,0 z m 121.65533,0 0,9.97896 10.90703,0 0,33.679 c -2e-5,5.45525 1.21236,9.77934 3.61639,12.96609 2.40399,3.18675 5.97636,4.79252 10.73344,4.79253 1.16452,-10e-6 2.22094,-0.0493 3.18242,-0.16414 0.96142,-0.11478 1.88814,-0.29172 2.74846,-0.49238 0.86025,-0.20065 1.71455,-0.43477 2.57487,-0.72216 0.86025,-0.28739 1.79309,-0.60671 2.80632,-0.95194 l -2.48808,-9.28963 c -1.16305,0.51523 -2.24993,0.8489 -3.21135,1.05042 -0.96149,0.20156 -1.85927,0.32827 -2.71953,0.32826 -0.75992,10e-6 -1.49408,-0.13151 -2.22769,-0.36109 -0.73367,-0.22955 -1.414,-0.603 -1.99625,-1.14889 -0.58231,-0.54587 -1.03081,-1.27625 -1.35976,-2.16648 -0.329,-0.89021 -0.49186,-1.9958 -0.49183,-3.31538 l 0,-44.18317 -22.07444,0 z m -71.14161,6.3025 -1.44655,11.35764 -9.92338,0.52521 0,9.3881 9.40262,0 0,15.06692 c -1e-5,2.81262 0.2822,5.35095 0.839,7.64835 0.55677,2.29741 1.48694,4.27185 2.77738,5.90859 1.29042,1.63675 2.95896,2.92233 5.03402,3.84059 2.07501,0.91826 4.62334,1.37867 7.60888,1.37868 2.42946,-10e-6 4.66588,-0.23413 6.74095,-0.72217 2.075,-0.48804 3.94299,-1.03366 5.61264,-1.60845 l -1.96732,-9.12549 c -1.11362,0.45913 -2.29018,0.82867 -3.5296,1.11606 -1.2395,0.28739 -2.58157,0.42674 -4.05035,0.42674 -2.73226,0 -4.75276,-0.65301 -6.01767,-2.00236 -1.26497,-1.34935 -1.88055,-3.68552 -1.88053,-6.95901 l 0,-14.96845 15.85426,0 0,-9.91331 -15.85426,0 0,-11.35764 -9.20009,0 z m 40.79287,0 -1.41762,11.35764 -9.95231,0.52521 0,9.3881 9.40262,0 0,15.06692 c -10e-6,2.81262 0.2822,5.35095 0.839,7.64835 0.55677,2.29741 1.48694,4.27185 2.77738,5.90859 1.29042,1.63675 2.95897,2.92233 5.03402,3.84059 2.07501,0.91826 4.62334,1.37867 7.60888,1.37868 2.42947,-10e-6 4.66588,-0.23413 6.74095,-0.72217 2.075,-0.48804 3.94299,-1.03366 5.61264,-1.60845 l -1.96732,-9.12549 c -1.11362,0.45913 -2.29018,0.82867 -3.52959,1.11606 -1.2395,0.28739 -2.58158,0.42674 -4.05036,0.42674 -2.73225,0 -4.72383,-0.65301 -5.98874,-2.00236 -1.26497,-1.34935 -1.90948,-3.68552 -1.90945,-6.95901 l 0,-14.96845 15.85425,0 0,-9.91331 -15.85425,0 0,-11.35764 -9.2001,0 z m -73.16679,20.64726 c 4.60567,4e-5 6.91451,3.8598 6.91454,11.5546 -3e-5,4.42132 -0.69492,7.63679 -2.11197,9.61787 -1.41711,1.9811 -3.16075,2.9543 -5.23653,2.9543 -1.01167,0 -2.10124,-0.22629 -3.24029,-0.6565 -1.13909,-0.43022 -2.23554,-1.16539 -3.29814,-2.19932 l 0,-17.29906 c 2.27811,-2.64084 4.59384,-3.97185 6.97239,-3.97189 z" />
  </g>
</svg>
